*** Life<FredkinCell> 5x5 ***

Generation = 0, Population = 6.
-----
-0---
-----
000-0
--0--

Generation = 1, Population = 11.
-0---
0-0--
0-0-0
1----
0-100

Generation = 2, Population = 11.
-----
10100
--1--
-0-0-
1-2-1

*** Life<FredkinCell> 5x5 ***

Generation = 0, Population = 4.
-----
-----
---0-
-00--
0----

Generation = 1, Population = 6.
-----
---0-
-0--0
-11--
--0--

Generation = 2, Population = 10.
---0-
-00--
01---
0--00
--10-

Generation = 3, Population = 10.
-0--0
--1--
---00
1---1
002--

Generation = 4, Population = 10.
0--0-
-----
0--1-
2-1-2
--300

Generation = 5, Population = 10.
-00-0
-----
11---
3-2-3
00---

Generation = 6, Population = 10.
011--
0-1-0
-2--0
-----
-1--0

Generation = 7, Population = 10.
---00
1-2-1
---11
-----
0-30-

Generation = 8, Population = 10.
0--1-
-----
1--2-
3-2-3
--410

Generation = 9, Population = 10.
-11-0
-----
22---
4-3-4
01---

Generation = 10, Population = 10.
022--
1-2-1
-3--1
-----
-2--0

Generation = 11, Population = 10.
---10
2-3-2
---22
-----
0-41-

*** Life<FredkinCell> 5x5 ***

Generation = 0, Population = 9.
-----
-0--0
-0--0
--00-
000--

Generation = 1, Population = 14.
-0--0
01001
01--1
00-1-
1----

Generation = 2, Population = 10.
-1--1
----2
12-02
1----
2--0-

Generation = 3, Population = 12.
0-002
0----
-3-1-
----0
300-0

Generation = 4, Population = 12.
1-1-3
1-0-2
-----
1-0-1
4-1-1

Generation = 5, Population = 12.
2-2-4
2-1-3
-----
2-1-2
5-2-2

Generation = 6, Population = 12.
3-3-5
3-2-4
-----
3-2-3
6-3-3

Generation = 7, Population = 12.
4-4-6
4-3-5
-----
4-3-4
7-4-4

Generation = 8, Population = 12.
5-5-7
5-4-6
-----
5-4-5
8-5-5

*** Life<FredkinCell> 5x5 ***

Generation = 0, Population = 3.
-----
-----
-----
-0-0-
---0-

Generation = 1, Population = 9.
-----
-----
-0-0-
0--10
-0010

Generation = 2, Population = 7.
-----
-0-0-
---1-
-0-2-
-1-2-

Generation = 3, Population = 14.
-0-0-
0--10
--0-0
01--0
02-30

Generation = 4, Population = 3.
---1-
-----
---1-
-----
---4-

Generation = 5, Population = 6.
--0-0
-----
--0-0
-----
--0-0

Generation = 6, Population = 3.
-0---
-----
-0---
-----
-2---

Generation = 7, Population = 6.
0-0--
-----
0-0--
-----
0-0--

Generation = 8, Population = 3.
---1-
-----
---1-
-----
---4-

Generation = 9, Population = 6.
--0-0
-----
--0-0
-----
--0-0

Generation = 10, Population = 3.
-0---
-----
-0---
-----
-2---

Generation = 11, Population = 6.
0-0--
-----
0-0--
-----
0-0--

*** Life<FredkinCell> 5x5 ***

Generation = 0, Population = 8.
-----
--0-0
0--00
---0-
---00

Generation = 1, Population = 12.
--0-0
00-01
-0---
0-0-0
--0-1

Generation = 2, Population = 16.
0--01
1-01-
01-0-
-01-1
001-2

Generation = 3, Population = 14.
10--2
-012-
---1-
01-02
11--3

Generation = 4, Population = 4.
2----
-----
0----
-----
--1-4

Generation = 5, Population = 6.
-0---
-----
-1---
0-1-2
-1---

Generation = 6, Population = 4.
2-0--
-----
----0
-----
----4

Generation = 7, Population = 6.
---0-
1-1-1
---1-
-----
---0-

Generation = 8, Population = 4.
2----
-----
0----
-----
--1-4

Generation = 9, Population = 6.
-0---
-----
-1---
0-1-2
-1---

*** Life<FredkinCell> 5x5 ***

Generation = 0, Population = 4.
-----
-----
----0
-----
-00-0

Generation = 1, Population = 7.
-----
----0
---0-
-00--
011--

Generation = 2, Population = 5.
----0
-----
-0---
-----
12-0-

Generation = 3, Population = 10.
---0-
-0--0
0-0--
0--0-
23--0

Generation = 4, Population = 7.
-00--
-----
10--0
-----
-41--

Generation = 5, Population = 18.
0110-
0-0-0
2100-
0-0-0
2520-

Generation = 6, Population = 7.
--21-
-----
3--10
-----
--31-

Generation = 7, Population = 18.
-1320
0-0-0
-1021
0-0-0
-5420

Generation = 8, Population = 7.
-24--
-----
32--2
-----
-65--

Generation = 9, Population = 18.
0352-
0-0-0
4302-
0-0-0
2762-

Generation = 10, Population = 7.
--63-
-----
5--32
-----
--73-

Generation = 11, Population = 18.
-3740
0-0-0
-3043
0-0-0
-7840

Generation = 12, Population = 7.
-48--
-----
54--4
-----
-89--

Generation = 13, Population = 18.
0594-
0-0-0
6504-
0-0-0
29+4-

Generation = 14, Population = 7.
--+5-
-----
7--54
-----
--+5-

Generation = 15, Population = 18.
-5+60
0-0-0
-5065
0-0-0
-9+60

Generation = 16, Population = 7.
-6+--
-----
76--6
-----
-++--

Generation = 17, Population = 18.
07+6-
0-0-0
8706-
0-0-0
2++6-

Generation = 18, Population = 7.
--+7-
-----
9--76
-----
--+7-

Generation = 19, Population = 18.
-7+80
0-0-0
-7087
0-0-0
-++80

Generation = 20, Population = 7.
-8+--
-----
98--8
-----
-++--

Generation = 21, Population = 18.
09+8-
0-0-0
+908-
0-0-0
2++8-

Generation = 22, Population = 7.
--+9-
-----
+--98
-----
--+9-

Generation = 23, Population = 18.
-9++0
0-0-0
-90+9
0-0-0
-+++0

Generation = 24, Population = 7.
-++--
-----
++--+
-----
-++--

*** Life<FredkinCell> 5x5 ***

Generation = 0, Population = 6.
-----
-----
-0---
-0--0
000--

Generation = 1, Population = 11.
-----
-0---
010-0
---0-
11100

Generation = 2, Population = 13.
-0---
-1--0
1210-
--010
2--11

Generation = 3, Population = 9.
010-0
-----
232-0
-----
-1---

Generation = 4, Population = 9.
1-1--
-----
3-3--
0-0-0
2-1--

Generation = 5, Population = 9.
---0-
-----
4-400
-----
3-211

Generation = 6, Population = 9.
--1-0
0-0-0
--5-1
-----
--3-2

Generation = 7, Population = 9.
112-1
-----
436-2
-----
-1---

Generation = 8, Population = 9.
2-3--
-----
5-7--
0-0-0
3-3--

Generation = 9, Population = 9.
---0-
-----
6-802
-----
4-412

Generation = 10, Population = 9.
--3-1
0-0-0
--9-3
-----
--5-3

Generation = 11, Population = 9.
214-2
-----
63+-4
-----
-1---

Generation = 12, Population = 9.
3-5--
-----
7-+--
0-0-0
4-5--

*** Life<FredkinCell> 5x5 ***

Generation = 0, Population = 4.
-----
-0---
-----
---0-
0---0

Generation = 1, Population = 8.
-0---
0-0--
-0-0-
0-0--
-0---

Generation = 2, Population = 2.
-----
-----
0---0
-----
-----

Generation = 3, Population = 6.
-----
0---0
-0-0-
0---0
-----

Generation = 4, Population = 6.
0---0
-----
0---0
-----
0---0

Generation = 5, Population = 6.
-0-0-
-----
-0-0-
-----
-0-0-

Generation = 6, Population = 6.
0---0
-----
0---0
-----
0---0

Generation = 7, Population = 6.
-0-0-
-----
-0-0-
-----
-0-0-

Generation = 8, Population = 6.
0---0
-----
0---0
-----
0---0

Generation = 9, Population = 6.
-0-0-
-----
-0-0-
-----
-0-0-

Generation = 10, Population = 6.
0---0
-----
0---0
-----
0---0

Generation = 11, Population = 6.
-0-0-
-----
-0-0-
-----
-0-0-

Generation = 12, Population = 6.
0---0
-----
0---0
-----
0---0

Generation = 13, Population = 6.
-0-0-
-----
-0-0-
-----
-0-0-

Generation = 14, Population = 6.
0---0
-----
0---0
-----
0---0

Generation = 15, Population = 6.
-0-0-
-----
-0-0-
-----
-0-0-

Generation = 16, Population = 6.
0---0
-----
0---0
-----
0---0

Generation = 17, Population = 6.
-0-0-
-----
-0-0-
-----
-0-0-

Generation = 18, Population = 6.
0---0
-----
0---0
-----
0---0

Generation = 19, Population = 6.
-0-0-
-----
-0-0-
-----
-0-0-

Generation = 20, Population = 6.
0---0
-----
0---0
-----
0---0

Generation = 21, Population = 6.
-0-0-
-----
-0-0-
-----
-0-0-

Generation = 22, Population = 6.
0---0
-----
0---0
-----
0---0

*** Life<FredkinCell> 5x5 ***

Generation = 0, Population = 3.
-----
----0
0----
-----
-0---

Generation = 1, Population = 9.
----0
0--0-
-0--0
00---
0-0--

Generation = 2, Population = 10.
0----
--0-0
010--
----0
10-0-

Generation = 3, Population = 9.
-00-0
--1--
1--0-
--0--
21---

Generation = 4, Population = 10.
01---
0-2-0
-10-0
-----
32---

Generation = 5, Population = 13.
-2--0
1-3-1
-2--1
0-0-0
430--

Generation = 6, Population = 10.
---01
-----
1-00-
1-1-1
---00

Generation = 7, Population = 13.
--012
1-3-1
2--1-
2-2-2
4--1-

Generation = 8, Population = 10.
02---
2-4-2
-20-1
-----
53---

Generation = 9, Population = 13.
-3--2
3-5-3
-3--2
2-2-2
640--

Generation = 10, Population = 10.
---13
-----
2-01-
3-3-3
---10

Generation = 11, Population = 13.
--024
3-5-3
3--2-
4-4-4
6--2-

Generation = 12, Population = 10.
03---
4-6-4
-30-2
-----
74---

Generation = 13, Population = 13.
-4--4
5-7-5
-4--3
4-4-4
850--

Generation = 14, Population = 10.
---25
-----
3-02-
5-5-5
---20

Generation = 15, Population = 13.
--036
5-7-5
4--3-
6-6-6
8--3-

Generation = 16, Population = 10.
04---
6-8-6
-40-3
-----
95---

Generation = 17, Population = 13.
-5--6
7-9-7
-5--4
6-6-6
+60--

Generation = 18, Population = 10.
---37
-----
4-03-
7-7-7
---30

Generation = 19, Population = 13.
--048
7-9-7
5--4-
8-8-8
+--4-

Generation = 20, Population = 10.
05---
8-+-8
-50-4
-----
+6---

Generation = 21, Population = 13.
-6--8
9-+-9
-6--5
8-8-8
+70--

*** Life<FredkinCell> 5x5 ***

Generation = 0, Population = 3.
-----
-----
-----
-00--
--0--

Generation = 1, Population = 7.
-----
-----
-00--
01-0-
--10-

Generation = 2, Population = 9.
-----
-00--
--1--
1--10
0-2-0

Generation = 3, Population = 15.
-00--
01-0-
0-2-0
2102-
1--01

Generation = 4, Population = 7.
--1--
-----
--3--
3-1-0
2---2

Generation = 5, Population = 15.
-0-0-
-----
00400
4-2-1
30203

Generation = 6, Population = 7.
0---0
0-0-0
--5--
-----
--3--

Generation = 7, Population = 15.
10101
1-1-1
00600
-----
-0-0-

Generation = 8, Population = 7.
--2--
-----
--7--
4-2-1
3---3

Generation = 9, Population = 15.
-0-0-
-----
00800
5-3-2
40304

Generation = 10, Population = 7.
1---1
1-1-1
--9--
-----
--4--

Generation = 11, Population = 15.
20202
2-2-2
00+00
-----
-0-0-

Generation = 12, Population = 7.
--3--
-----
--+--
5-3-2
4---4

Generation = 13, Population = 15.
-0-0-
-----
00+00
6-4-3
50405

Generation = 14, Population = 7.
2---2
2-2-2
--+--
-----
--5--

Generation = 15, Population = 15.
30303
3-3-3
00+00
-----
-0-0-

Generation = 16, Population = 7.
--4--
-----
--+--
6-4-3
5---5

*** Life<FredkinCell> 5x5 ***

Generation = 0, Population = 4.
-----
---0-
-----
0---0
0----

Generation = 1, Population = 12.
---0-
--0-0
0--00
10-0-
10--0

Generation = 2, Population = 8.
-----
00--1
1----
2--10
--0--

Generation = 3, Population = 14.
00--0
-100-
---0-
30-21
10--0

Generation = 4, Population = 4.
1----
-----
1----
-----
--0-1

Generation = 5, Population = 6.
-0---
-----
-0---
3-0-1
-0---

Generation = 6, Population = 4.
1-0--
-----
----0
-----
----1

Generation = 7, Population = 6.
---0-
0-0-1
---0-
-----
---0-

Generation = 8, Population = 4.
1----
-----
1----
-----
--0-1

*** Life<FredkinCell> 5x5 ***

Generation = 0, Population = 10.
-----
---0-
0-00-
00--0
-00-0

Generation = 1, Population = 11.
---0-
0--10
101--
--0-1
--1-1

Generation = 2, Population = 10.
0-01-
1---1
-----
0---2
-02-2

Generation = 3, Population = 12.
1-12-
200--
-----
--003
-13-3

Generation = 4, Population = 12.
20-30
-----
10-00
-----
02-04

Generation = 5, Population = 12.
31-41
-----
21-11
-----
13-15

Generation = 6, Population = 12.
42-52
-----
32-22
-----
24-26

Generation = 7, Population = 12.
53-63
-----
43-33
-----
35-37

Generation = 8, Population = 12.
64-74
-----
54-44
-----
46-48

Generation = 9, Population = 12.
75-85
-----
65-55
-----
57-59

*** Life<FredkinCell> 5x5 ***

Generation = 0, Population = 5.
-----
-----
--0--
0-0--
--00-

Generation = 1, Population = 9.
-----
--0--
0010-
-----
00-10

Generation = 2, Population = 13.
--0--
0-1--
1-210
--0-0
11-21

Generation = 3, Population = 13.
0010-
1---0
2-3--
--1--
2203-

Generation = 4, Population = 9.
---1-
-----
3-410
-----
3-141

Generation = 5, Population = 9.
--1-0
1-1-0
--5-1
-----
--2-2

Generation = 6, Population = 9.
002-1
-----
306-2
-----
-2---

Generation = 7, Population = 9.
1-3--
-----
4-7--
0-1-0
3-2--

Generation = 8, Population = 9.
---1-
-----
5-812
-----
4-342

Generation = 9, Population = 9.
--3-1
1-1-0
--9-3
-----
--4-3

Generation = 10, Population = 9.
104-2
-----
50+-4
-----
-2---

Generation = 11, Population = 9.
2-5--
-----
6-+--
0-1-0
4-4--

*** Life<FredkinCell> 5x5 ***

Generation = 0, Population = 7.
-----
-----
-0---
000--
-000-

Generation = 1, Population = 6.
-----
-0---
-1---
1----
--110

Generation = 2, Population = 13.
-0---
010--
-20--
--000
002-1

Generation = 3, Population = 11.
-1---
1--0-
--1-0
101--
1--12

*** Life<FredkinCell> 5x5 ***

Generation = 0, Population = 4.
-----
-----
0----
--0--
00---

Generation = 1, Population = 6.
-----
0----
-00--
---0-
11---

Generation = 2, Population = 10.
0----
--0--
-11--
0---0
2200-

Generation = 3, Population = 11.
-00--
0-10-
-2-00
10---
---1-

Generation = 4, Population = 12.
-1---
-----
031-1
2-0-0
220-0

Generation = 5, Population = 7.
0-0--
0-1-0
----2
-----
----1

Generation = 6, Population = 12.
1-100
1-2-1
0-103
-----
---1-

Generation = 7, Population = 7.
2----
-----
1----
2-0-0
--0-1

Generation = 8, Population = 12.
-1---
-----
231-3
3-1-1
221-2

Generation = 9, Population = 7.
2-1--
1-2-1
----4
-----
----3

*** Life<FredkinCell> 5x5 ***

Generation = 0, Population = 13.
-----
-0000
000-0
-0-0-
0-0-0

Generation = 1, Population = 12.
-0000
--1--
1---1
01--0
-0-0-

Generation = 2, Population = 13.
011-1
0-2--
2-002
--0-1
-1---

Generation = 3, Population = 9.
-----
-0---
3-1--
0-102
0---0

Generation = 4, Population = 9.
-1---
-----
402-2
-----
110-1

Generation = 5, Population = 9.
0-1--
0-2-0
5-3--
-----
2-1--

Generation = 6, Population = 9.
1-201
-----
6-402
-----
---0-

Generation = 7, Population = 9.
--3-2
-----
--5-3
0-1-2
--1-1

Generation = 8, Population = 9.
-1---
-----
606-4
-----
212-2

Generation = 9, Population = 9.
1-3--
0-2-0
7-7--
-----
3-3--

*** Life<FredkinCell> 5x5 ***

Generation = 0, Population = 8.
-----
--00-
--00-
0-0-0
--0--

Generation = 1, Population = 13.
--00-
-0--0
001--
---0-
00100

Generation = 2, Population = 13.
--11-
-10--
112-0
--01-
1--11

Generation = 3, Population = 11.
---20
--1-0
2230-
----0
-0--2

Generation = 4, Population = 15.
---3-
0-2-1
3-410
0-0-1
1-113

Generation = 5, Population = 7.
0----
1-3-2
--5-1
-----
2----

Generation = 6, Population = 15.
101-0
2-4-3
326-2
0-0-1
-0---

Generation = 7, Population = 7.
----1
-----
4-7--
1-1-2
----3

Generation = 8, Population = 15.
---3-
2-4-3
5-812
2-2-3
2-114

*** Life<FredkinCell> 5x5 ***

Generation = 0, Population = 6.
-----
----0
0----
---0-
--000

Generation = 1, Population = 12.
----0
0--0-
-0-00
0--1-
-0111

Generation = 2, Population = 12.
0----
--010
0--11
-0--0
-1-22

*** Life<FredkinCell> 5x5 ***

Generation = 0, Population = 10.
-----
--0--
00-00
---00
-00-0

Generation = 1, Population = 13.
--0--
0---0
110--
0---1
01101

Generation = 2, Population = 11.
00-00
1--0-
2-10-
-0--2
-----

Generation = 3, Population = 7.
-1--1
-----
312--
-----
-1--1

Generation = 4, Population = 15.
0-00-
1-0-0
4-30-
0-0-2
0-10-

Generation = 5, Population = 7.
1--1-
-----
--410
-----
1--1-

Generation = 6, Population = 15.
-10-1
1-0-0
-15-1
0-0-2
-11-1

Generation = 7, Population = 7.
-2--2
-----
426--
-----
-2--2

Generation = 8, Population = 15.
1-01-
1-0-0
5-71-
0-0-2
1-11-

Generation = 9, Population = 7.
2--2-
-----
--821
-----
2--2-

Generation = 10, Population = 15.
-20-2
1-0-0
-29-2
0-0-2
-21-2

Generation = 11, Population = 7.
-3--3
-----
53+--
-----
-3--3

Generation = 12, Population = 15.
2-02-
1-0-0
6-+2-
0-0-2
2-12-

*** Life<FredkinCell> 5x5 ***

Generation = 0, Population = 10.
-----
-0-00
-0000
00---
---0-

Generation = 1, Population = 14.
-0-00
010--
-1-1-
1---0
000-0

Generation = 2, Population = 17.
-1011
1-100
020--
200-1
--1-1

Generation = 3, Population = 15.
-212-
2-21-
131--
-11-2
0-2-2

Generation = 4, Population = 15.
-32-1
3-3-0
-42-0
2-2-3
-03-3

Generation = 5, Population = 7.
-4--2
-----
153--
-----
-1--4

Generation = 6, Population = 15.
0-22-
3-3-0
2-41-
2-2-3
0-30-

Generation = 7, Population = 7.
1--3-
-----
--520
-----
1--1-

Generation = 8, Population = 15.
-42-2
3-3-0
-56-1
2-2-3
-13-4

Generation = 9, Population = 7.
-5--3
-----
267--
-----
-2--5

Generation = 10, Population = 15.
1-23-
3-3-0
3-82-
2-2-3
1-31-

Generation = 11, Population = 7.
2--4-
-----
--931
-----
2--2-

Generation = 12, Population = 15.
-52-3
3-3-0
-6+-2
2-2-3
-23-5

Generation = 13, Population = 7.
-6--4
-----
37+--
-----
-3--6

Generation = 14, Population = 15.
2-24-
3-3-0
4-+3-
2-2-3
2-32-

Generation = 15, Population = 7.
3--5-
-----
--+42
-----
3--3-

Generation = 16, Population = 15.
-62-4
3-3-0
-7+-3
2-2-3
-33-6

*** Life<FredkinCell> 5x5 ***

Generation = 0, Population = 3.
-----
----0
-0---
---0-
-----

Generation = 1, Population = 11.
----0
-0-0-
0-000
-00-0
---0-

Generation = 2, Population = 8.
-0---
--010
---1-
-1--1
-0---

Generation = 3, Population = 16.
0--00
--121
-0-20
020--
010-0

Generation = 4, Population = 6.
-0---
0-2-2
-1---
-----
-2---

Generation = 5, Population = 4.
----0
-----
----0
-----
0-0--

Generation = 6, Population = 6.
---0-
-----
---2-
0-0-1
---0-

Generation = 7, Population = 4.
--0-0
-----
0----
-----
0----

Generation = 8, Population = 6.
-0---
0-2-2
-1---
-----
-2---

Generation = 9, Population = 4.
----0
-----
----0
-----
0-0--

*** Life<FredkinCell> 5x5 ***

Generation = 0, Population = 12.
-----
-00-0
-000-
-00-0
00-0-

Generation = 1, Population = 12.
-00-0
0--0-
01-10
-1---
1-0--

Generation = 2, Population = 14.
-110-
10-10
----1
02-00
-0-0-

Generation = 3, Population = 6.
-----
2-0--
---1-
1----
-1-1-

Generation = 4, Population = 4.
0-1--
-----
----1
-----
----0

Generation = 5, Population = 6.
---0-
2-0-0
---1-
-----
---1-

Generation = 6, Population = 4.
0----
-----
0----
-----
--0-0

Generation = 7, Population = 6.
-1---
-----
-1---
1-0-0
-1---

Generation = 8, Population = 4.
0-1--
-----
----1
-----
----0

Generation = 9, Population = 6.
---0-
2-0-0
---1-
-----
---1-

Generation = 10, Population = 4.
0----
-----
0----
-----
--0-0

Generation = 11, Population = 6.
-1---
-----
-1---
1-0-0
-1---

Generation = 12, Population = 4.
0-1--
-----
----1
-----
----0

Generation = 13, Population = 6.
---0-
2-0-0
---1-
-----
---1-

Generation = 14, Population = 4.
0----
-----
0----
-----
--0-0

Generation = 15, Population = 6.
-1---
-----
-1---
1-0-0
-1---

Generation = 16, Population = 4.
0-1--
-----
----1
-----
----0

Generation = 17, Population = 6.
---0-
2-0-0
---1-
-----
---1-

Generation = 18, Population = 4.
0----
-----
0----
-----
--0-0

Generation = 19, Population = 6.
-1---
-----
-1---
1-0-0
-1---

Generation = 20, Population = 4.
0-1--
-----
----1
-----
----0

Generation = 21, Population = 6.
---0-
2-0-0
---1-
-----
---1-

Generation = 22, Population = 4.
0----
-----
0----
-----
--0-0

Generation = 23, Population = 6.
-1---
-----
-1---
1-0-0
-1---

Generation = 24, Population = 4.
0-1--
-----
----1
-----
----0

*** Life<FredkinCell> 5x5 ***

Generation = 0, Population = 13.
-----
-0-00
0000-
-000-
-000-

Generation = 1, Population = 15.
-0-00
-10-1
1-11-
-1-10
0-1-0

Generation = 2, Population = 10.
0101-
----2
----0
0----
-0-01

Generation = 3, Population = 12.
1--2-
010-3
1--11
---1-
---12

Generation = 4, Population = 10.
2----
1-1-4
2----
0-0-0
--1-3

Generation = 5, Population = 12.
310-0
-----
-0---
1-1-1
002-4

Generation = 6, Population = 10.
4-1--
1-1-4
----1
2-2-2
----5

*** Life<FredkinCell> 5x5 ***

Generation = 0, Population = 12.
-----
-00--
-00-0
---00
00000

Generation = 1, Population = 13.
-00--
0--00
0--01
0-0-1
1--1-

Generation = 2, Population = 9.
-11-0
1----
-0--2
----2
20---

Generation = 3, Population = 14.
-22--
-00--
--003
0--03
310-0

Generation = 4, Population = 13.
0--0-
1-1-0
0--1-
1-0-4
--111

Generation = 5, Population = 10.
12---
-----
-00-3
2-1-5
31---

Generation = 6, Population = 13.
232--
1-1-0
-1--4
3-2-6
-2--1

Generation = 7, Population = 10.
---00
2-2-1
0-01-
-----
---12

Generation = 8, Population = 13.
2--1-
3-3-2
1--2-
3-2-6
--123

Generation = 9, Population = 10.
33---
-----
-10-4
4-3-7
32---

Generation = 10, Population = 13.
442--
3-3-2
-2--5
5-4-8
-3--3

Generation = 11, Population = 10.
---10
4-4-3
1-02-
-----
---24

Generation = 12, Population = 13.
4--2-
5-5-4
2--3-
5-4-8
--135

Generation = 13, Population = 10.
54---
-----
-20-5
6-5-9
33---

Generation = 14, Population = 13.
652--
5-5-4
-3--6
7-6-+
-4--5

Generation = 15, Population = 10.
---20
6-6-5
2-03-
-----
---36

Generation = 16, Population = 13.
6--3-
7-7-6
3--4-
7-6-+
--147

Generation = 17, Population = 10.
75---
-----
-30-6
8-7-+
34---

Generation = 18, Population = 13.
862--
7-7-6
-4--7
9-8-+
-5--7

*** Life<FredkinCell> 5x5 ***

Generation = 0, Population = 12.
-----
-0--0
-0000
0----
00000

Generation = 1, Population = 8.
-0--0
01--1
-----
10---
----1

Generation = 2, Population = 16.
-1001
1-002
----0
210-0
00-0-

Generation = 3, Population = 12.
-211-
-1-13
-0---
-2101
--0--

Generation = 4, Population = 10.
0----
1-0-4
0----
2-2-2
--1-1

Generation = 5, Population = 12.
121-1
-----
-0---
3-3-3
002-2

Generation = 6, Population = 10.
2-2--
1-0-4
----0
4-4-4
----3

Generation = 7, Population = 12.
3-311
2-1-5
---0-
-----
0-204

Generation = 8, Population = 10.
4----
3-2-6
0----
4-4-4
--3-5

Generation = 9, Population = 12.
523-1
-----
-0---
5-5-5
004-6

Generation = 10, Population = 10.
6-4--
3-2-6
----0
6-6-6
----7

Generation = 11, Population = 12.
7-511
4-3-7
---0-
-----
0-408

Generation = 12, Population = 10.
8----
5-4-8
0----
6-6-6
--5-9

Generation = 13, Population = 12.
925-1
-----
-0---
7-7-7
006-+

Generation = 14, Population = 10.
+-6--
5-4-8
----0
8-8-8
----+

Generation = 15, Population = 12.
+-711
6-5-9
---0-
-----
0-60+

Generation = 16, Population = 10.
+----
7-6-+
0----
8-8-8
--7-+

Generation = 17, Population = 12.
+27-1
-----
-0---
9-9-9
008-+

Generation = 18, Population = 10.
+-8--
7-6-+
----0
+-+-+
----+

Generation = 19, Population = 12.
+-911
8-7-+
---0-
-----
0-80+

Generation = 20, Population = 10.
+----
9-8-+
0----
+-+-+
--9-+

Generation = 21, Population = 12.
+29-1
-----
-0---
+-+-+
00+-+

Generation = 22, Population = 10.
+-+--
9-8-+
----0
+-+-+
----+

Generation = 23, Population = 12.
+-+11
+-9-+
---0-
-----
0-+0+

Generation = 24, Population = 10.
+----
+-+-+
0----
+-+-+
--+-+

Generation = 25, Population = 12.
+2+-1
-----
-0---
+-+-+
00+-+

*** Life<FredkinCell> 5x5 ***

Generation = 0, Population = 8.
-----
-0-0-
-0-0-
--0--
0--00

Generation = 1, Population = 17.
-0-0-
01-10
01010
0--00
-0-11

Generation = 2, Population = 12.
-1-1-
-202-
12--1
10-11
-----

Generation = 3, Population = 14.
02020
-3---
-3-12
---2-
00-11

Generation = 4, Population = 12.
13--1
-----
14--3
1-0-1
11--2

Generation = 5, Population = 10.
2402-
-----
-5-14
-----
-2-13

Generation = 6, Population = 12.
3--31
0-0-0
1--25
-----
1--24

Generation = 7, Population = 10.
44-4-
-----
25-3-
-----
-2035

Generation = 8, Population = 12.
55--1
-----
36--5
1-0-1
13--6

Generation = 9, Population = 10.
6604-
-----
-7-36
-----
-4-37

Generation = 10, Population = 12.
7--51
0-0-0
3--47
-----
1--48

Generation = 11, Population = 10.
86-6-
-----
47-5-
-----
-4059

Generation = 12, Population = 12.
97--1
-----
58--7
1-0-1
15--+

Generation = 13, Population = 10.
+806-
-----
-9-58
-----
-6-5+

Generation = 14, Population = 12.
+--71
0-0-0
5--69
-----
1--6+

Generation = 15, Population = 10.
+8-8-
-----
69-7-
-----
-607+

Generation = 16, Population = 12.
+9--1
-----
7+--9
1-0-1
17--+

Generation = 17, Population = 10.
++08-
-----
-+-7+
-----
-8-7+

*** Life<FredkinCell> 5x5 ***

Generation = 0, Population = 2.
-----
-----
-----
-----
---00

Generation = 1, Population = 5.
-----
-----
-----
---00
--011

Generation = 2, Population = 5.
-----
-----
---00
-----
-012-

Generation = 3, Population = 12.
-----
---00
--011
-00-0
01-31

Generation = 4, Population = 7.
---00
-----
---22
-----
1-14-

Generation = 5, Population = 12.
--011
-----
--033
0-0-0
--251

Generation = 6, Population = 7.
-01-2
-----
00---
-----
11---

Generation = 7, Population = 12.
012--
0-0-0
110--
-----
222--

Generation = 8, Population = 7.
---12
-----
---33
-----
3-35-

Generation = 9, Population = 12.
--223
-----
--044
0-0-0
--461

Generation = 10, Population = 7.
-13-4
-----
11---
-----
32---

Generation = 11, Population = 12.
024--
0-0-0
220--
-----
434--

Generation = 12, Population = 7.
---24
-----
---44
-----
5-56-

Generation = 13, Population = 12.
--435
-----
--055
0-0-0
--671

Generation = 14, Population = 7.
-25-6
-----
22---
-----
53---

Generation = 15, Population = 12.
036--
0-0-0
330--
-----
646--

Generation = 16, Population = 7.
---36
-----
---55
-----
7-77-

Generation = 17, Population = 12.
--647
-----
--066
0-0-0
--881

Generation = 18, Population = 7.
-37-8
-----
33---
-----
74---

Generation = 19, Population = 12.
048--
0-0-0
440--
-----
858--

Generation = 20, Population = 7.
---48
-----
---66
-----
9-98-

*** Life<FredkinCell> 5x5 ***

Generation = 0, Population = 9.
-----
-0--0
-00-0
-00--
--00-

Generation = 1, Population = 14.
-0--0
01-01
01--1
0-1-0
---10

Generation = 2, Population = 12.
-10-1
-2-12
1----
10-0-
0--2-

Generation = 3, Population = 18.
0-102
-302-
21--1
21-10
1-030

Generation = 4, Population = 16.
-1-13
0-1-2
-2-02
3-1-1
2014-

Generation = 5, Population = 10.
--12-
-----
2--13
4-2-2
--25-

Generation = 6, Population = 16.
-1233
0-1-2
32-2-
5-3-3
20-6-

Generation = 7, Population = 10.
-23--
1-2-3
43--3
-----
-12--

Generation = 8, Population = 16.
-3-33
2-3-4
-4-24
5-3-3
2236-

Generation = 9, Population = 10.
--34-
-----
4--35
6-4-4
--47-

Generation = 10, Population = 16.
-3453
2-3-4
54-4-
7-5-5
22-8-

Generation = 11, Population = 10.
-45--
3-4-5
65--5
-----
-34--

Generation = 12, Population = 16.
-5-53
4-5-6
-6-46
7-5-5
2458-

Generation = 13, Population = 10.
--56-
-----
6--57
8-6-6
--69-

Generation = 14, Population = 16.
-5673
4-5-6
76-6-
9-7-7
24-+-

Generation = 15, Population = 10.
-67--
5-6-7
87--7
-----
-56--

Generation = 16, Population = 16.
-7-73
6-7-8
-8-68
9-7-7
267+-

Generation = 17, Population = 10.
--78-
-----
8--79
+-8-8
--8+-

Generation = 18, Population = 16.
-7893
6-7-8
98-8-
+-9-9
26-+-

*** Life<FredkinCell> 5x5 ***

Generation = 0, Population = 10.
-----
-0--0
0-0--
-000-
00-0-

Generation = 1, Population = 12.
-0--0
---0-
--1-0
0-1-0
1-010

Generation = 2, Population = 12.
0-0--
-0--0
00201
1--0-
2----

Generation = 3, Population = 13.
-0-00
010-1
-1-1-
---1-
30-1-

Generation = 4, Population = 16.
-101-
1-1-2
-222-
1-1-0
41-20

Generation = 5, Population = 13.
-212-
-----
03-31
2-2-1
-203-

Generation = 6, Population = 16.
03-30
1-1-2
-424-
3-3-2
-314-

Generation = 7, Population = 13.
-414-
2-2-3
05-51
-----
-425-

Generation = 8, Population = 16.
-525-
3-3-4
-626-
3-3-2
45-60

Generation = 9, Population = 13.
-636-
-----
07-71
4-4-3
-627-

Generation = 10, Population = 16.
07-70
3-3-4
-828-
5-5-4
-738-

Generation = 11, Population = 13.
-838-
4-4-5
09-91
-----
-849-

Generation = 12, Population = 16.
-949-
5-5-6
-+2+-
5-5-4
49-+0

Generation = 13, Population = 13.
-+5+-
-----
0+-+1
6-6-5
-+4+-

Generation = 14, Population = 16.
0+-+0
5-5-6
-+2+-
7-7-6
-+5+-

Generation = 15, Population = 13.
-+5+-
6-6-7
0+-+1
-----
-+6+-

Generation = 16, Population = 16.
-+6+-
7-7-8
-+2+-
7-7-6
4+-+0

Generation = 17, Population = 13.
-+7+-
-----
0+-+1
8-8-7
-+6+-

Generation = 18, Population = 16.
0+-+0
7-7-8
-+2+-
9-9-8
-+7+-

Generation = 19, Population = 13.
-+7+-
8-8-9
0+-+1
-----
-+8+-

Generation = 20, Population = 16.
-+8+-
9-9-+
-+2+-
9-9-8
4+-+0

Generation = 21, Population = 13.
-+9+-
-----
0+-+1
+-+-9
-+8+-

Generation = 22, Population = 16.
0+-+0
9-9-+
-+2+-
+-+-+
-+9+-

Generation = 23, Population = 13.
-+9+-
+-+-+
0+-+1
-----
-+++-

*** Life<FredkinCell> 5x5 ***

Generation = 0, Population = 6.
-----
----0
0--00
-0---
----0

Generation = 1, Population = 9.
----0
0---1
--01-
--00-
-0-0-

Generation = 2, Population = 14.
0--01
-00-2
00---
---10
0-010

Generation = 3, Population = 10.
---1-
0-103
1--1-
-0---
--12-

Generation = 4, Population = 10.
0--2-
1-2-4
2--2-
-----
--230

Generation = 5, Population = 10.
10---
-----
30---
0-0-0
-03-1

Generation = 6, Population = 10.
210--
-----
-1--0
1-1-1
-1--2

Generation = 7, Population = 10.
3-12-
1-2-4
---21
-----
---33

Generation = 8, Population = 10.
4--3-
2-3-5
3--3-
-----
--344

Generation = 9, Population = 10.
51---
-----
41---
1-1-1
-14-5

Generation = 10, Population = 10.
621--
-----
-2--1
2-2-2
-2--6

Generation = 11, Population = 10.
7-23-
2-3-5
---32
-----
---47

Generation = 12, Population = 10.
8--4-
3-4-6
4--4-
-----
--458

Generation = 13, Population = 10.
92---
-----
52---
2-2-2
-25-9

Generation = 14, Population = 10.
+32--
-----
-3--2
3-3-3
-3--+

Generation = 15, Population = 10.
+-34-
3-4-6
---43
-----
---5+

Generation = 16, Population = 10.
+--5-
4-5-7
5--5-
-----
--56+

Generation = 17, Population = 10.
+3---
-----
63---
3-3-3
-36-+

Generation = 18, Population = 10.
+43--
-----
-4--3
4-4-4
-4--+

Generation = 19, Population = 10.
+-45-
4-5-7
---54
-----
---6+

Generation = 20, Population = 10.
+--6-
5-6-8
6--6-
-----
--67+

Generation = 21, Population = 10.
+4---
-----
74---
4-4-4
-47-+

Generation = 22, Population = 10.
+54--
-----
-5--4
5-5-5
-5--+

*** Life<FredkinCell> 5x5 ***

Generation = 0, Population = 4.
-----
-0---
0--00
-----
-----

Generation = 1, Population = 10.
-0---
--000
--011
0--00
-----

Generation = 2, Population = 11.
0--00
---1-
00--2
-0---
0--00

Generation = 3, Population = 16.
-00-1
-0020
1-0--
0100-
--011

Generation = 4, Population = 9.
0--02
-----
2--12
-----
0--22

Generation = 5, Population = 12.
-0013
-----
-0023
-----
-0033

Generation = 6, Population = 9.
01--4
-----
21--4
-----
01--4

Generation = 7, Population = 12.
1201-
-----
3202-
-----
1203-

*** Life<FredkinCell> 5x5 ***

Generation = 0, Population = 10.
-----
--000
000--
-0-0-
--00-

Generation = 1, Population = 14.
--000
0---1
11-00
-1-10
--1-0

Generation = 2, Population = 12.
001--
1-00-
----1
-20-1
---01

Generation = 3, Population = 12.
-----
20-1-
11--2
0311-
-0-1-

Generation = 4, Population = 10.
00-0-
-----
22-0-
-----
-1121

Generation = 5, Population = 12.
11--0
-----
33--2
0-1-1
02--2

Generation = 6, Population = 10.
2210-
-----
-4-03
-----
-3-23

Generation = 7, Population = 12.
3--10
2-0-1
3--14
-----
0--34

Generation = 8, Population = 10.
42-2-
-----
44-2-
-----
-3145

Generation = 9, Population = 12.
53--0
-----
55--4
0-1-1
04--6

Generation = 10, Population = 10.
6412-
-----
-6-25
-----
-5-47

Generation = 11, Population = 12.
7--30
2-0-1
5--36
-----
0--58

Generation = 12, Population = 10.
84-4-
-----
66-4-
-----
-5169

Generation = 13, Population = 12.
95--0
-----
77--6
0-1-1
06--+

Generation = 14, Population = 10.
+614-
-----
-8-47
-----
-7-6+

Generation = 15, Population = 12.
+--50
2-0-1
7--58
-----
0--7+

Generation = 16, Population = 10.
+6-6-
-----
88-6-
-----
-718+

Generation = 17, Population = 12.
+7--0
-----
99--8
0-1-1
08--+

Generation = 18, Population = 10.
+816-
-----
-+-69
-----
-9-8+

*** Life<FredkinCell> 5x5 ***

Generation = 0, Population = 3.
-----
-----
0----
-----
--0-0

Generation = 1, Population = 6.
-----
0----
-0---
0-0-0
-0---

Generation = 2, Population = 4.
0----
-----
0---0
-----
----0

Generation = 3, Population = 6.
-0---
----0
-0-0-
0----
---0-

Generation = 4, Population = 6.
0-0-0
-----
-----
-----
0-0-0

Generation = 5, Population = 6.
-----
0-0-0
-----
0-0-0
-----

Generation = 6, Population = 6.
0-0-0
-----
-----
-----
0-0-0

Generation = 7, Population = 6.
-----
0-0-0
-----
0-0-0
-----

Generation = 8, Population = 6.
0-0-0
-----
-----
-----
0-0-0

Generation = 9, Population = 6.
-----
0-0-0
-----
0-0-0
-----

Generation = 10, Population = 6.
0-0-0
-----
-----
-----
0-0-0

Generation = 11, Population = 6.
-----
0-0-0
-----
0-0-0
-----

Generation = 12, Population = 6.
0-0-0
-----
-----
-----
0-0-0

Generation = 13, Population = 6.
-----
0-0-0
-----
0-0-0
-----

Generation = 14, Population = 6.
0-0-0
-----
-----
-----
0-0-0

*** Life<FredkinCell> 5x5 ***

Generation = 0, Population = 8.
-----
-----
00-00
0-0--
---00

Generation = 1, Population = 14.
-----
00-00
-1011
10-0-
0--11

Generation = 2, Population = 13.
00-00
1-0--
02---
--0-0
1-0-2

Generation = 3, Population = 12.
-1011
----0
-30-1
--1-1
--1-3

Generation = 4, Population = 7.
02---
-----
04---
-----
-02-4

Generation = 5, Population = 12.
130--
-----
150--
1-1-1
113--

*** Life<FredkinCell> 5x5 ***

Generation = 0, Population = 8.
-----
--00-
0-0-0
0--0-
----0

Generation = 1, Population = 11.
--00-
00-1-
1-1--
10--0
0----

Generation = 2, Population = 12.
0-1-0
-1-20
----0
21-0-
1---0

Generation = 3, Population = 12.
-0-01
--031
1--01
-2--0
2----

Generation = 4, Population = 10.
0-1--
0-1-2
----2
2-0-1
----0

Generation = 5, Population = 12.
1-201
1-2-3
---0-
-----
2-001

Generation = 6, Population = 10.
2----
2-3-4
1----
2-0-1
--1-2

Generation = 7, Population = 12.
302-1
-----
-0---
3-1-2
202-3

Generation = 8, Population = 10.
4-3--
2-3-4
----2
4-2-3
----4

Generation = 9, Population = 12.
5-401
3-4-5
---0-
-----
2-205

Generation = 10, Population = 10.
6----
4-5-6
1----
4-2-3
--3-6

Generation = 11, Population = 12.
704-1
-----
-0---
5-3-4
204-7

Generation = 12, Population = 10.
8-5--
4-5-6
----2
6-4-5
----8

Generation = 13, Population = 12.
9-601
5-6-7
---0-
-----
2-409

Generation = 14, Population = 10.
+----
6-7-8
1----
6-4-5
--5-+

Generation = 15, Population = 12.
+06-1
-----
-0---
7-5-6
206-+

Generation = 16, Population = 10.
+-7--
6-7-8
----2
8-6-7
----+

Generation = 17, Population = 12.
+-801
7-8-9
---0-
-----
2-60+

Generation = 18, Population = 10.
+----
8-9-+
1----
8-6-7
--7-+

Generation = 19, Population = 12.
+08-1
-----
-0---
9-7-8
208-+

Generation = 20, Population = 10.
+-9--
8-9-+
----2
+-8-9
----+

Generation = 21, Population = 12.
+-+01
9-+-+
---0-
-----
2-80+

Generation = 22, Population = 10.
+----
+-+-+
1----
+-8-9
--9-+

Generation = 23, Population = 12.
+0+-1
-----
-0---
+-9-+
20+-+

*** Life<FredkinCell> 5x5 ***

Generation = 0, Population = 4.
-----
-0---
00---
----0
-----

Generation = 1, Population = 10.
-0---
-10--
1-0-0
00-0-
----0

Generation = 2, Population = 12.
01---
---00
2-10-
-10-0
00---

Generation = 3, Population = 13.
12000
-1--1
-0--0
0--0-
1---0

Generation = 4, Population = 10.
23---
-----
-11-1
1-0-0
20---

Generation = 5, Population = 13.
340--
0-0-1
-2--2
2-1-1
-1--0

Generation = 6, Population = 10.
---00
1-1-2
2-10-
-----
---01

Generation = 7, Population = 13.
3--1-
2-2-3
3--1-
2-1-1
--012

Generation = 8, Population = 10.
44---
-----
-21-2
3-2-2
21---

Generation = 9, Population = 13.
550--
2-2-3
-3--3
4-3-3
-2--2

Generation = 10, Population = 10.
---10
3-3-4
3-11-
-----
---13

*** Life<FredkinCell> 5x5 ***

Generation = 0, Population = 11.
-----
--00-
00--0
0-00-
0--00

Generation = 1, Population = 14.
--00-
0-11-
-100-
-01-0
10--1

Generation = 2, Population = 13.
00--0
-0220
-----
-1-01
2--02

Generation = 3, Population = 4.
1---1
-----
--0--
-----
--0--

Generation = 4, Population = 9.
-0-0-
0-2-0
-1-0-
-----
-0-0-

Generation = 5, Population = 4.
--0--
-----
--0--
-----
2---2

Generation = 6, Population = 9.
-0-0-
-----
-1-0-
0-1-1
-0-0-

Generation = 7, Population = 4.
1---1
-----
--0--
-----
--0--

Generation = 8, Population = 9.
-0-0-
0-2-0
-1-0-
-----
-0-0-

Generation = 9, Population = 4.
--0--
-----
--0--
-----
2---2

Generation = 10, Population = 9.
-0-0-
-----
-1-0-
0-1-1
-0-0-

Generation = 11, Population = 4.
1---1
-----
--0--
-----
--0--

Generation = 12, Population = 9.
-0-0-
0-2-0
-1-0-
-----
-0-0-

Generation = 13, Population = 4.
--0--
-----
--0--
-----
2---2

Generation = 14, Population = 9.
-0-0-
-----
-1-0-
0-1-1
-0-0-

Generation = 15, Population = 4.
1---1
-----
--0--
-----
--0--

Generation = 16, Population = 9.
-0-0-
0-2-0
-1-0-
-----
-0-0-

Generation = 17, Population = 4.
--0--
-----
--0--
-----
2---2

Generation = 18, Population = 9.
-0-0-
-----
-1-0-
0-1-1
-0-0-

*** Life<FredkinCell> 5x5 ***

Generation = 0, Population = 5.
-----
--0--
-0-0-
---0-
0----

Generation = 1, Population = 12.
--0--
-----
0-010
00010
-0-0-

Generation = 2, Population = 13.
-0-0-
0--00
10-2-
-11--
-101-

Generation = 3, Population = 14.
---1-
10011
--03-
-2-1-
0-120

Generation = 4, Population = 13.
00-2-
2-1-2
10-4-
-----
-1231

Generation = 5, Population = 10.
-10--
-----
-10--
0-1-0
02--2

Generation = 6, Population = 13.
0212-
-----
-2-40
1-2-1
-3-33

Generation = 7, Population = 10.
1--30
2-1-2
--05-
-----
--24-

Generation = 8, Population = 13.
22-4-
3-2-3
12-6-
-----
-3353

Generation = 9, Population = 10.
-31--
-----
-30--
1-2-1
04--4

Generation = 10, Population = 13.
2424-
-----
-4-60
2-3-2
-5-55

Generation = 11, Population = 10.
3--50
3-2-3
--07-
-----
--36-

Generation = 12, Population = 13.
44-6-
4-3-4
14-8-
-----
-5475

Generation = 13, Population = 10.
-52--
-----
-50--
2-3-2
06--6

Generation = 14, Population = 13.
4636-
-----
-6-80
3-4-3
-7-77

Generation = 15, Population = 10.
5--70
4-3-4
--09-
-----
--48-

Generation = 16, Population = 13.
66-8-
5-4-5
16-+-
-----
-7597

Generation = 17, Population = 10.
-73--
-----
-70--
3-4-3
08--8

Generation = 18, Population = 13.
6848-
-----
-8-+0
4-5-4
-9-99

Generation = 19, Population = 10.
7--90
5-4-5
--0+-
-----
--5+-

*** Life<FredkinCell> 5x5 ***

Generation = 0, Population = 9.
-----
-0--0
-0-00
-0---
--000

Generation = 1, Population = 12.
-0--0
010-1
0--1-
01---
--1-1

Generation = 2, Population = 12.
-1-01
-2102
-0---
-2-00
0----

Generation = 3, Population = 12.
020--
03-1-
0----
-3-11
---01

Generation = 4, Population = 10.
-31--
1-1-2
10--0
-----
-01--

Generation = 5, Population = 16.
-4-01
2-2-3
-1-11
0-0-1
0120-

Generation = 6, Population = 10.
--11-
-----
1--22
1-1-2
--31-

Generation = 7, Population = 16.
-4221
2-2-3
21-3-
2-2-3
01-2-

Generation = 8, Population = 10.
-53--
3-3-4
32--2
-----
-23--

Generation = 9, Population = 16.
-6-21
4-4-5
-3-33
2-2-3
0342-

Generation = 10, Population = 10.
--33-
-----
3--44
3-3-4
--53-

Generation = 11, Population = 16.
-6441
4-4-5
43-5-
4-4-5
03-4-

Generation = 12, Population = 10.
-75--
5-5-6
54--4
-----
-45--

Generation = 13, Population = 16.
-8-41
6-6-7
-5-55
4-4-5
0564-

Generation = 14, Population = 10.
--55-
-----
5--66
5-5-6
--75-

Generation = 15, Population = 16.
-8661
6-6-7
65-7-
6-6-7
05-6-

*** Life<FredkinCell> 5x5 ***

Generation = 0, Population = 8.
-----
--000
-0--0
0--0-
-0---

Generation = 1, Population = 10.
--000
--1--
---01
-00--
--00-

Generation = 2, Population = 15.
-0--1
-020-
-0012
01-00
---10

Generation = 3, Population = 15.
01---
013-0
-11--
1-011
000--

Generation = 4, Population = 7.
----1
-----
0-2--
2-1-2
----0

Generation = 5, Population = 15.
---0-
0-3-0
1-312
3-2-3
0-011

Generation = 6, Population = 7.
0----
1-4-1
--4-3
-----
1----

Generation = 7, Population = 15.
110-1
2-5-2
115-4
3-2-3
-0---

Generation = 8, Population = 7.
----2
-----
2-6--
4-3-4
----1

Generation = 9, Population = 15.
---0-
2-5-2
3-714
5-4-5
1-012

Generation = 10, Population = 7.
1----
3-6-3
--8-5
-----
2----

Generation = 11, Population = 15.
210-2
4-7-4
319-6
5-4-5
-0---

Generation = 12, Population = 7.
----3
-----
4-+--
6-5-6
----2

Generation = 13, Population = 15.
---0-
4-7-4
5-+16
7-6-7
2-013

Generation = 14, Population = 7.
2----
5-8-5
--+-7
-----
3----

Generation = 15, Population = 15.
310-3
6-9-6
51+-8
7-6-7
-0---

Generation = 16, Population = 7.
----4
-----
6-+--
8-7-8
----3

Generation = 17, Population = 15.
---0-
6-9-6
7-+18
9-8-9
3-014

Generation = 18, Population = 7.
3----
7-+-7
--+-9
-----
4----

Generation = 19, Population = 15.
410-4
8-+-8
71+-+
9-8-9
-0---

Generation = 20, Population = 7.
----5
-----
8-+--
+-9-+
----4

Generation = 21, Population = 15.
---0-
8-+-8
9-+1+
+-+-+
4-015

Generation = 22, Population = 7.
4----
9-+-9
--+-+
-----
5----

Generation = 23, Population = 15.
510-5
+-+-+
91+-+
+-+-+
-0---

*** Life<FredkinCell> 5x5 ***

Generation = 0, Population = 1.
-----
-----
-----
-----
----0

Generation = 1, Population = 2.
-----
-----
-----
----0
---0-

Generation = 2, Population = 2.
-----
-----
----0
-----
--0--

Generation = 3, Population = 6.
-----
----0
---0-
--0-0
-0-0-

Generation = 4, Population = 4.
----0
-----
----0
-----
0-0--

Generation = 5, Population = 6.
---0-
-----
---0-
0-0-0
---0-

Generation = 6, Population = 4.
--0-0
-----
0----
-----
0----

Generation = 7, Population = 6.
-0---
0-0-0
-0---
-----
-0---

Generation = 8, Population = 4.
----0
-----
----0
-----
0-0--

Generation = 9, Population = 6.
---0-
-----
---0-
0-0-0
---0-

Generation = 10, Population = 4.
--0-0
-----
0----
-----
0----

Generation = 11, Population = 6.
-0---
0-0-0
-0---
-----
-0---

Generation = 12, Population = 4.
----0
-----
----0
-----
0-0--

Generation = 13, Population = 6.
---0-
-----
---0-
0-0-0
---0-

*** Life<FredkinCell> 5x5 ***

Generation = 0, Population = 10.
-----
-0---
-0-00
00-00
00---

Generation = 1, Population = 10.
-0---
01000
-----
-1---
--000

Generation = 2, Population = 15.
-1-00
12--1
0-000
0--00
--1-1

Generation = 3, Population = 15.
-2-1-
---0-
-0111
110-1
00-02

Generation = 4, Population = 7.
0--20
-----
--22-
-----
--11-

Generation = 5, Population = 15.
-2031
1-0-1
-0331
-----
-0222

Generation = 6, Population = 7.
-31--
-----
-14--
-----
01--3

Generation = 7, Population = 15.
0423-
-----
0253-
1-0-1
1222-

Generation = 8, Population = 7.
1--41
-----
--64-
-----
--33-

Generation = 9, Population = 15.
-4252
1-0-1
-2751
-----
-2443

Generation = 10, Population = 7.
-53--
-----
-38--
-----
13--4

*** Life<FredkinCell> 5x5 ***

Generation = 0, Population = 12.
-----
-0000
----0
0-000
-00-0

Generation = 1, Population = 14.
-0000
01---
00-0-
-0--1
-1-01

Generation = 2, Population = 10.
----1
-2--0
-1---
--002
02-1-

Generation = 3, Population = 20.
-0-02
03001
02-0-
00113
1302-

Generation = 4, Population = 10.
-10--
-----
13--0
1-2-4
-41--

Generation = 5, Population = 16.
0210-
0-0-1
-4-01
2-3-5
-5-21

Generation = 6, Population = 10.
--21-
1-1-2
1--12
-----
--13-

Generation = 7, Population = 16.
02-2-
2-2-3
24-2-
2-3-5
-5241

Generation = 8, Population = 10.
-32--
-----
35--2
3-4-6
-63--

Generation = 9, Population = 16.
0432-
2-2-3
-6-23
4-5-7
-7-41

Generation = 10, Population = 10.
--43-
3-3-4
3--34
-----
--35-

Generation = 11, Population = 16.
04-4-
4-4-5
46-4-
4-5-7
-7461

*** Life<FredkinCell> 5x5 ***

Generation = 0, Population = 12.
-----
-000-
--000
0-0-0
-000-

Generation = 1, Population = 14.
-000-
011--
0-11-
-0--1
-111-

Generation = 2, Population = 13.
--110
-220-
1--2-
-100-
0--2-

Generation = 3, Population = 14.
---21
-331-
-01-0
02-11
---30

Generation = 4, Population = 13.
-0--2
0-4-0
-1--1
1-0-2
011--

Generation = 5, Population = 10.
---23
-----
1-12-
2-1-3
---30

Generation = 6, Population = 13.
--134
0-4-0
2--3-
3-2-4
0--4-

Generation = 7, Population = 10.
00---
1-5-1
-11-1
-----
11---

Generation = 8, Population = 13.
-1--4
2-6-2
-2--2
3-2-4
221--

Generation = 9, Population = 10.
---35
-----
2-13-
4-3-5
---40

Generation = 10, Population = 13.
--146
2-6-2
3--4-
5-4-6
2--5-

Generation = 11, Population = 10.
01---
3-7-3
-21-2
-----
32---

Generation = 12, Population = 13.
-2--6
4-8-4
-3--3
5-4-6
431--

Generation = 13, Population = 10.
---47
-----
3-14-
6-5-7
---50

Generation = 14, Population = 13.
--158
4-8-4
4--5-
7-6-8
4--6-

Generation = 15, Population = 10.
02---
5-9-5
-31-3
-----
53---

Generation = 16, Population = 13.
-3--8
6-+-6
-4--4
7-6-8
641--

*** Life<FredkinCell> 5x5 ***

Generation = 0, Population = 9.
-----
-00--
-0000
0---0
0----

Generation = 1, Population = 11.
-00--
0---0
--1--
1-0-1
10--0

Generation = 2, Population = 15.
-1100
---0-
-020-
201-2
-1-01

Generation = 3, Population = 11.
02-11
--0--
--3--
3---3
-201-

Generation = 4, Population = 15.
13122
0-1-0
00400
-----
-3-2-

Generation = 5, Population = 7.
--2--
-----
--5--
3-1-3
1---1

*** Life<FredkinCell> 5x5 ***

Generation = 0, Population = 7.
-----
----0
--0--
-0--0
00--0

Generation = 1, Population = 11.
----0
--00-
---0-
-1-01
1-001

Generation = 2, Population = 9.
--0--
-01--
-0---
--01-
-011-

Generation = 3, Population = 14.
--10-
0--0-
0100-
-1--1
112-1

Generation = 4, Population = 15.
002-0
1-1-0
-2---
0-0-2
223-2

Generation = 5, Population = 10.
----1
2-2-1
0-0--
1-1-3
----3

Generation = 6, Population = 15.
0-202
3-3-2
---0-
2-2-4
2-314

Generation = 7, Population = 10.
1----
4-4-3
--0-0
3-3-5
3----

Generation = 8, Population = 15.
202-2
5-5-4
-2---
4-4-6
423-4

Generation = 9, Population = 10.
----3
6-6-5
0-0--
5-5-7
----5

Generation = 10, Population = 15.
2-204
7-7-6
---0-
6-6-8
4-316

Generation = 11, Population = 10.
3----
8-8-7
--0-0
7-7-9
5----

*** Life<FredkinCell> 5x5 ***

Generation = 0, Population = 1.
-----
-----
-----
0----
-----

Generation = 1, Population = 3.
-----
-----
0----
-0---
0----

Generation = 2, Population = 3.
-----
0----
-----
0-0--
-----

Generation = 3, Population = 6.
0----
-0---
--0--
---0-
0-0--

Generation = 4, Population = 3.
-----
-----
-----
0-0-0
-----

Generation = 5, Population = 6.
-----
-----
0-0-0
-----
0-0-0

*** Life<FredkinCell> 5x5 ***

Generation = 0, Population = 4.
-----
---0-
---0-
-----
0---0

Generation = 1, Population = 12.
---0-
--010
--010
0--00
-0-0-

Generation = 2, Population = 7.
---1-
-0---
00--1
---1-
---1-

Generation = 3, Population = 16.
-00-0
-1010
1-0--
0002-
--020

Generation = 4, Population = 9.
0--11
-----
2--11
-----
0--31

Generation = 5, Population = 12.
-0022
-----
-0022
-----
-0042

Generation = 6, Population = 9.
01--3
-----
21--3
-----
01--3

Generation = 7, Population = 12.
1202-
-----
3202-
-----
1204-

Generation = 8, Population = 9.
2--33
-----
4--33
-----
2--53

Generation = 9, Population = 12.
-2044
-----
-2044
-----
-2064

Generation = 10, Population = 9.
23--5
-----
43--5
-----
23--5

Generation = 11, Population = 12.
3404-
-----
5404-
-----
3406-

Generation = 12, Population = 9.
4--55
-----
6--55
-----
4--75

Generation = 13, Population = 12.
-4066
-----
-4066
-----
-4086

Generation = 14, Population = 9.
45--7
-----
65--7
-----
45--7

*** Life<FredkinCell> 5x5 ***

Generation = 0, Population = 1.
-----
-----
--0--
-----
-----

Generation = 1, Population = 4.
-----
--0--
-0-0-
--0--
-----

Generation = 2, Population = 4.
--0--
-----
0---0
-----
--0--

Generation = 3, Population = 12.
-0-0-
0-0-0
-0-0-
0-0-0
-0-0-

Generation = 4, Population = 4.
--0--
-----
0---0
-----
--0--

Generation = 5, Population = 12.
-0-0-
0-0-0
-0-0-
0-0-0
-0-0-

*** Life<FredkinCell> 5x5 ***

Generation = 0, Population = 4.
-----
----0
--0--
--0--
--0--

Generation = 1, Population = 12.
----0
--00-
-0100
-0-0-
-010-

Generation = 2, Population = 8.
--0--
----0
0-2-1
0----
0---0

Generation = 3, Population = 13.
-0-00
0--01
1---2
-00--
10-0-

Generation = 4, Population = 12.
-----
1-0-2
2-2-3
0-1-0
2-1-0

Generation = 5, Population = 9.
0-0-0
2-1-3
-----
-----
3-2-1

Generation = 6, Population = 12.
1-1-1
3-2-4
2-2-3
0-1-0
-----

Generation = 7, Population = 9.
2-2-2
-----
-----
1-2-1
3-2-1

Generation = 8, Population = 12.
-----
3-2-4
2-2-3
2-3-2
4-3-2

Generation = 9, Population = 9.
2-2-2
4-3-5
-----
-----
5-4-3

Generation = 10, Population = 12.
3-3-3
5-4-6
2-2-3
2-3-2
-----

Generation = 11, Population = 9.
4-4-4
-----
-----
3-4-3
5-4-3

Generation = 12, Population = 12.
-----
5-4-6
2-2-3
4-5-4
6-5-4

Generation = 13, Population = 9.
4-4-4
6-5-7
-----
-----
7-6-5

Generation = 14, Population = 12.
5-5-5
7-6-8
2-2-3
4-5-4
-----

*** Life<FredkinCell> 5x5 ***

Generation = 0, Population = 8.
-----
-0-0-
---0-
000--
0---0

Generation = 1, Population = 13.
-0-0-
0--10
0--10
--1-0
1-00-

Generation = 2, Population = 11.
---1-
1-02-
10--1
-02-1
---1-

Generation = 3, Population = 12.
0--20
201--
--0-2
--302
-0---

Generation = 4, Population = 9.
1--31
-----
1--13
-----
1--10

Generation = 5, Population = 12.
-0042
-----
-0024
-----
-0021

Generation = 6, Population = 9.
11--3
-----
11--5
-----
11--2

Generation = 7, Population = 12.
2204-
-----
2202-
-----
2202-

Generation = 8, Population = 9.
3--53
-----
3--35
-----
3--32

Generation = 9, Population = 12.
-2064
-----
-2046
-----
-2043

Generation = 10, Population = 9.
33--5
-----
33--7
-----
33--4

Generation = 11, Population = 12.
4406-
-----
4404-
-----
4404-

*** Life<FredkinCell> 5x5 ***

Generation = 0, Population = 3.
-----
-----
0----
-0---
-0---

Generation = 1, Population = 6.
-----
0----
-----
-10--
010--

Generation = 2, Population = 9.
0----
-0---
000--
---0-
12-0-

Generation = 3, Population = 11.
-----
01---
111--
---10
23-10

Generation = 4, Population = 7.
00---
-----
-22-0
-----
34---

Generation = 5, Population = 15.
110--
0-0-0
133--
0-0-0
450--

Generation = 6, Population = 7.
---00
-----
2-40-
-----
---10

Generation = 7, Population = 15.
--011
0-0-0
--510
0-0-0
--021

*** Life<FredkinCell> 5x5 ***

Generation = 0, Population = 7.
-----
--00-
0----
0--00
---0-

Generation = 1, Population = 18.
--00-
00110
100-0
100-1
0-01-

Generation = 2, Population = 14.
0----
-1-2-
2-10-
21102
10-2-

Generation = 3, Population = 13.
---0-
0-130
3--1-
322-3
--03-

Generation = 4, Population = 10.
0--1-
1-2-1
--120
-----
1--4-

Generation = 5, Population = 13.
10---
2-3-2
30---
3-2-3
-00-0

Generation = 6, Population = 10.
-1--0
-----
411--
4-3-4
-1--1

Generation = 7, Population = 13.
1-01-
2-3-2
---20
5-4-5
---42

Generation = 8, Population = 10.
2--2-
3-4-3
--131
-----
1--5-

Generation = 9, Population = 13.
31---
4-5-4
41---
5-4-5
-10-2

Generation = 10, Population = 10.
-2--0
-----
521--
6-5-6
-2--3

Generation = 11, Population = 13.
3-02-
4-5-4
---31
7-6-7
---54

Generation = 12, Population = 10.
4--3-
5-6-5
--142
-----
1--6-

Generation = 13, Population = 13.
52---
6-7-6
52---
7-6-7
-20-4

*** Life<FredkinCell> 5x5 ***

Generation = 0, Population = 5.
-----
--00-
--00-
--0--
-----

Generation = 1, Population = 10.
--00-
-0--0
-01-0
-01--
--0--

*** Life<FredkinCell> 5x5 ***

Generation = 0, Population = 13.
-----
-0-0-
000-0
00-0-
00-00

Generation = 1, Population = 11.
-0-0-
-10--
--1--
11010
----1

Generation = 2, Population = 14.
010-0
0----
00--0
2-1--
000-2

Generation = 3, Population = 8.
--1--
-10--
11-0-
--21-
-----

Generation = 4, Population = 10.
--20-
-----
2--10
2-3-0
--00-

Generation = 5, Population = 16.
-1310
0-0-0
31-2-
3-4-1
00-1-

Generation = 6, Population = 10.
-24--
1-1-1
42--0
-----
-10--

Generation = 7, Population = 16.
-3-10
2-2-2
-3-21
3-4-1
0211-

Generation = 8, Population = 10.
--42-
-----
4--32
4-5-2
--22-

Generation = 9, Population = 16.
-3530
2-2-2
53-4-
5-6-3
02-3-

Generation = 10, Population = 10.
-46--
3-3-3
64--2
-----
-32--

Generation = 11, Population = 16.
-5-30
4-4-4
-5-43
5-6-3
0433-

Generation = 12, Population = 10.
--64-
-----
6--54
6-7-4
--44-

Generation = 13, Population = 16.
-5750
4-4-4
75-6-
7-8-5
04-5-

Generation = 14, Population = 10.
-68--
5-5-5
86--4
-----
-54--

Generation = 15, Population = 16.
-7-50
6-6-6
-7-65
7-8-5
0655-

Generation = 16, Population = 10.
--86-
-----
8--76
8-9-6
--66-

Generation = 17, Population = 16.
-7970
6-6-6
97-8-
9-+-7
06-7-

Generation = 18, Population = 10.
-8+--
7-7-7
+8--6
-----
-76--

Generation = 19, Population = 16.
-9-70
8-8-8
-9-87
9-+-7
0877-

Generation = 20, Population = 10.
--+8-
-----
+--98
+-+-8
--88-

*** Life<FredkinCell> 5x5 ***

Generation = 0, Population = 7.
-----
--00-
0---0
0----
---00

Generation = 1, Population = 16.
--00-
0011-
100--
10-0-
0-011

Generation = 2, Population = 13.
0---0
-1--0
2--0-
2--1-
10122

Generation = 3, Population = 10.
---01
0-1-1
3-01-
-----
---33

Generation = 4, Population = 13.
0--1-
1-2-2
4--2-
2-0-0
--144

Generation = 5, Population = 10.
10---
-----
-00-0
3-1-1
10---

Generation = 6, Population = 13.
210--
1-2-2
-1--1
4-2-2
-1--4

Generation = 7, Population = 10.
---11
2-3-3
4-02-
-----
---45

*** Life<FredkinCell> 5x5 ***

Generation = 0, Population = 3.
-----
-----
-----
--0-0
---0-

Generation = 1, Population = 4.
-----
-----
--0-0
-0-0-
-----

Generation = 2, Population = 7.
-----
--0-0
---0-
0-0--
-0-0-

Generation = 3, Population = 10.
--0-0
-0-0-
0-0--
-0-0-
--0-0

Generation = 4, Population = 3.
---0-
-----
---0-
-----
---0-

Generation = 5, Population = 6.
--0-0
-----
--0-0
-----
--0-0

Generation = 6, Population = 3.
-0---
-----
-0---
-----
-0---

Generation = 7, Population = 6.
0-0--
-----
0-0--
-----
0-0--

*** Life<FredkinCell> 5x5 ***

Generation = 0, Population = 7.
-----
-000-
00---
-----
--0-0

Generation = 1, Population = 12.
-000-
---10
1--0-
000-0
-0---

Generation = 2, Population = 14.
01---
00-21
2--10
-110-
-1--0

Generation = 3, Population = 10.
--000
1----
30-2-
----0
02---

Generation = 4, Population = 12.
011-1
2-0-1
-1---
-----
130-0

Generation = 5, Population = 10.
----2
3-1-2
----0
0-1-0
2-1--

Generation = 6, Population = 12.
0-103
-----
---2-
1-2-1
3-200

Generation = 7, Population = 10.
--2-4
3-1-2
3----
2-3-2
4----

Generation = 8, Population = 12.
013-5
4-2-3
-1---
-----
532-0

Generation = 9, Population = 10.
----6
5-3-4
----0
2-3-2
6-3--

Generation = 10, Population = 12.
0-307
-----
---2-
3-4-3
7-400

Generation = 11, Population = 10.
--4-8
5-3-4
3----
4-5-4
8----

Generation = 12, Population = 12.
015-9
6-4-5
-1---
-----
934-0

Generation = 13, Population = 10.
----+
7-5-6
----0
4-5-4
+-5--

Generation = 14, Population = 12.
0-50+
-----
---2-
5-6-5
+-600

Generation = 15, Population = 10.
--6-+
7-5-6
3----
6-7-6
+----

*** Life<FredkinCell> 5x5 ***

Generation = 0, Population = 12.
-----
-0000
000--
-0-00
0--0-

Generation = 1, Population = 14.
-0000
--1-1
1--0-
010-1
--01-

Generation = 2, Population = 11.
011--
0-2-2
2-0-0
-----
0--2-

Generation = 3, Population = 13.
---00
-0--3
3-1-1
--001
-00-0

Generation = 4, Population = 13.
-111-
-----
-020-
0-1-2
01-21

Generation = 5, Population = 13.
02-20
-----
-131-
1-2-3
-203-

Generation = 6, Population = 13.
13-31
0-2-3
-242-
-----
-314-

Generation = 7, Population = 13.
-414-
1-3-4
-353-
-----
04-51

Generation = 8, Population = 13.
-525-
-----
-464-
1-2-3
15-62

Generation = 9, Population = 13.
16-61
-----
-575-
2-3-4
-617-

Generation = 10, Population = 13.
27-72
1-3-4
-686-
-----
-728-

Generation = 11, Population = 13.
-828-
2-4-5
-797-
-----
18-92

Generation = 12, Population = 13.
-939-
-----
-8+8-
2-3-4
29-+3

Generation = 13, Population = 13.
2+-+2
-----
-9+9-
3-4-5
-+2+-

Generation = 14, Population = 13.
3+-+3
2-4-5
-+++-
-----
-+3+-

Generation = 15, Population = 13.
-+3+-
3-5-6
-+++-
-----
2+-+3

Generation = 16, Population = 13.
-+4+-
-----
-+++-
3-4-5
3+-+4

Generation = 17, Population = 13.
3+-+3
-----
-+++-
4-5-6
-+3+-

*** Life<FredkinCell> 5x5 ***

Generation = 0, Population = 7.
-----
-000-
---0-
--0--
0-0--

Generation = 1, Population = 15.
-000-
01--0
-0010
001--
--10-

Generation = 2, Population = 17.
---1-
12001
011--
11200
0--10

Generation = 3, Population = 15.
00-2-
-3112
1-21-
2231-
1----

Generation = 4, Population = 15.
1-03-
1-2-3
2-32-
3-4-0
2-11-

Generation = 5, Population = 7.
2--4-
-----
--430
-----
3--2-

Generation = 6, Population = 15.
-00-0
1-2-3
-15-1
3-4-0
-01-0

Generation = 7, Population = 7.
-1--1
-----
226--
-----
-1--1

Generation = 8, Population = 15.
2-04-
1-2-3
3-73-
3-4-0
3-12-

Generation = 9, Population = 7.
3--5-
-----
--841
-----
4--3-

Generation = 10, Population = 15.
-10-1
1-2-3
-29-2
3-4-0
-11-1

Generation = 11, Population = 7.
-2--2
-----
33+--
-----
-2--2

Generation = 12, Population = 15.
3-05-
1-2-3
4-+4-
3-4-0
4-13-

Generation = 13, Population = 7.
4--6-
-----
--+52
-----
5--4-

Generation = 14, Population = 15.
-20-2
1-2-3
-3+-3
3-4-0
-21-2

Generation = 15, Population = 7.
-3--3
-----
44+--
-----
-3--3

Generation = 16, Population = 15.
4-06-
1-2-3
5-+5-
3-4-0
5-14-

Generation = 17, Population = 7.
5--7-
-----
--+63
-----
6--5-

*** Life<FredkinCell> 5x5 ***

Generation = 0, Population = 5.
-----
-00-0
-----
0---0
-----

Generation = 1, Population = 13.
-00-0
011--
000--
-0-0-
0---0

Generation = 2, Population = 6.
-----
--200
-----
010--
-----

Generation = 3, Population = 16.
--000
-13-1
00-00
1-10-
000--

Generation = 4, Population = 0.
-----
-----
-----
-----
-----

Generation = 5, Population = 0.
-----
-----
-----
-----
-----

Generation = 6, Population = 0.
-----
-----
-----
-----
-----

Generation = 7, Population = 0.
-----
-----
-----
-----
-----

Generation = 8, Population = 0.
-----
-----
-----
-----
-----

Generation = 9, Population = 0.
-----
-----
-----
-----
-----

Generation = 10, Population = 0.
-----
-----
-----
-----
-----

Generation = 11, Population = 0.
-----
-----
-----
-----
-----

Generation = 12, Population = 0.
-----
-----
-----
-----
-----

Generation = 13, Population = 0.
-----
-----
-----
-----
-----

Generation = 14, Population = 0.
-----
-----
-----
-----
-----

Generation = 15, Population = 0.
-----
-----
-----
-----
-----

Generation = 16, Population = 0.
-----
-----
-----
-----
-----

Generation = 17, Population = 0.
-----
-----
-----
-----
-----

Generation = 18, Population = 0.
-----
-----
-----
-----
-----

Generation = 19, Population = 0.
-----
-----
-----
-----
-----

Generation = 20, Population = 0.
-----
-----
-----
-----
-----

Generation = 21, Population = 0.
-----
-----
-----
-----
-----

Generation = 22, Population = 0.
-----
-----
-----
-----
-----

*** Life<FredkinCell> 5x5 ***

Generation = 0, Population = 9.
-----
-00--
00-0-
0---0
-0--0

Generation = 1, Population = 10.
-00--
--1--
--0--
10--1
--001

Generation = 2, Population = 14.
01-0-
---0-
0-100
210-2
0-1--

Generation = 3, Population = 17.
12-10
-0---
10-1-
3-103
10201

Generation = 4, Population = 10.
2--21
0-1-0
--12-
-----
--31-

Generation = 5, Population = 13.
32-3-
1-2-1
10-3-
-----
-0421

Generation = 6, Population = 10.
-30--
-----
-11--
3-1-3
11--2

Generation = 7, Population = 13.
3413-
-----
-2-30
4-2-4
-2-23

Generation = 8, Population = 10.
4--41
1-2-1
--14-
-----
--43-

Generation = 9, Population = 13.
54-5-
2-3-2
12-5-
-----
-2543

Generation = 10, Population = 10.
-51--
-----
-31--
4-2-4
13--4

Generation = 11, Population = 13.
5625-
-----
-4-50
5-3-5
-4-45

Generation = 12, Population = 10.
6--61
2-3-2
--16-
-----
--55-

Generation = 13, Population = 13.
76-7-
3-4-3
14-7-
-----
-4665

Generation = 14, Population = 10.
-72--
-----
-51--
5-3-5
15--6

Generation = 15, Population = 13.
7837-
-----
-6-70
6-4-6
-6-67

*** Life<FredkinCell> 5x5 ***

Generation = 0, Population = 9.
-----
--000
---0-
-00--
00-0-

Generation = 1, Population = 15.
--000
-0111
-001-
--10-
1-0-0

Generation = 2, Population = 8.
---1-
0----
0--2-
0-2--
--10-

Generation = 3, Population = 14.
0-0-0
10---
-0--0
1-30-
10-10

Generation = 4, Population = 10.
10---
-----
01---
2-4-0
-11-1

Generation = 5, Population = 10.
210--
-----
-2--0
3-5-1
-2--2

Generation = 6, Population = 10.
3-11-
1-1-1
---21
-----
---13

Generation = 7, Population = 10.
4--2-
2-2-2
0--3-
-----
--124

Generation = 8, Population = 10.
51---
-----
12---
3-5-1
-22-5

Generation = 9, Population = 10.
621--
-----
-3--1
4-6-2
-3--6

Generation = 10, Population = 10.
7-22-
2-2-2
---32
-----
---27

Generation = 11, Population = 10.
8--3-
3-3-3
1--4-
-----
--238

Generation = 12, Population = 10.
92---
-----
23---
4-6-2
-33-9

Generation = 13, Population = 10.
+32--
-----
-4--2
5-7-3
-4--+

*** Life<FredkinCell> 5x5 ***

Generation = 0, Population = 10.
-----
---00
-000-
0----
00-00

Generation = 1, Population = 12.
---00
-0--1
-1---
100-0
-1-11

Generation = 2, Population = 14.
-001-
010-2
-----
2-101
-202-

Generation = 3, Population = 12.
--12-
12-0-
-1-0-
-0-12
-31--

Generation = 4, Population = 12.
0-2-0
2-0-2
-----
2-1-3
0-2-1

Generation = 5, Population = 12.
1-3-1
3-1-3
-----
3-2-4
1-3-2

Generation = 6, Population = 12.
2-4-2
4-2-4
-----
4-3-5
2-4-3

Generation = 7, Population = 12.
3-5-3
5-3-5
-----
5-4-6
3-5-4

Generation = 8, Population = 12.
4-6-4
6-4-6
-----
6-5-7
4-6-5

Generation = 9, Population = 12.
5-7-5
7-5-7
-----
7-6-8
5-7-6

Generation = 10, Population = 12.
6-8-6
8-6-8
-----
8-7-9
6-8-7

Generation = 11, Population = 12.
7-9-7
9-7-9
-----
9-8-+
7-9-8

Generation = 12, Population = 12.
8-+-8
+-8-+
-----
+-9-+
8-+-9

Generation = 13, Population = 12.
9-+-9
+-9-+
-----
+-+-+
9-+-+

Generation = 14, Population = 12.
+-+-+
+-+-+
-----
+-+-+
+-+-+

Generation = 15, Population = 12.
+-+-+
+-+-+
-----
+-+-+
+-+-+

Generation = 16, Population = 12.
+-+-+
+-+-+
-----
+-+-+
+-+-+

Generation = 17, Population = 12.
+-+-+
+-+-+
-----
+-+-+
+-+-+

Generation = 18, Population = 12.
+-+-+
+-+-+
-----
+-+-+
+-+-+

Generation = 19, Population = 12.
+-+-+
+-+-+
-----
+-+-+
+-+-+

Generation = 20, Population = 12.
+-+-+
+-+-+
-----
+-+-+
+-+-+

Generation = 21, Population = 12.
+-+-+
+-+-+
-----
+-+-+
+-+-+

Generation = 22, Population = 12.
+-+-+
+-+-+
-----
+-+-+
+-+-+

*** Life<FredkinCell> 5x5 ***

Generation = 0, Population = 9.
-----
---00
0-0--
--000
--0-0

Generation = 1, Population = 14.
---00
0--11
--10-
001--
-0101

Generation = 2, Population = 11.
0-0--
-0-2-
-----
11200
--2-2

Generation = 3, Population = 12.
-0---
--0-1
0-1-0
2-3--
0-303

*** Life<FredkinCell> 5x5 ***

Generation = 0, Population = 5.
-----
--0--
--0-0
--0--
----0

Generation = 1, Population = 11.
--0--
-0100
-0---
-010-
--00-

Generation = 2, Population = 12.
--1-0
0-2-1
0-0-0
0-2-0
----0

Generation = 3, Population = 11.
002-1
1----
-----
1-3--
0-001

Generation = 4, Population = 10.
--3--
2-2-1
--0--
2-4-0
1---2

Generation = 5, Population = 15.
00401
-----
-0-0-
3-5-1
20003

Generation = 6, Population = 10.
1---2
2-2-1
--0--
4-6-2
--1--

Generation = 7, Population = 15.
20403
3-3-2
-0-0-
-----
20203

Generation = 8, Population = 10.
--5--
4-4-3
--0--
4-6-2
3---4

*** Life<FredkinCell> 5x5 ***

Generation = 0, Population = 3.
-----
-0---
-0---
-----
-0---

Generation = 1, Population = 9.
-0---
010--
010--
-----
0-0--

Generation = 2, Population = 6.
-1---
---0-
-2-0-
-0---
---0-

Generation = 3, Population = 16.
0-00-
--010
03-10
010--
-00-0

Generation = 4, Population = 0.
-----
-----
-----
-----
-----

Generation = 5, Population = 0.
-----
-----
-----
-----
-----

Generation = 6, Population = 0.
-----
-----
-----
-----
-----

Generation = 7, Population = 0.
-----
-----
-----
-----
-----

Generation = 8, Population = 0.
-----
-----
-----
-----
-----

Generation = 9, Population = 0.
-----
-----
-----
-----
-----

Generation = 10, Population = 0.
-----
-----
-----
-----
-----

Generation = 11, Population = 0.
-----
-----
-----
-----
-----

Generation = 12, Population = 0.
-----
-----
-----
-----
-----

Generation = 13, Population = 0.
-----
-----
-----
-----
-----

Generation = 14, Population = 0.
-----
-----
-----
-----
-----

Generation = 15, Population = 0.
-----
-----
-----
-----
-----

Generation = 16, Population = 0.
-----
-----
-----
-----
-----

Generation = 17, Population = 0.
-----
-----
-----
-----
-----

Generation = 18, Population = 0.
-----
-----
-----
-----
-----

Generation = 19, Population = 0.
-----
-----
-----
-----
-----

Generation = 20, Population = 0.
-----
-----
-----
-----
-----

Generation = 21, Population = 0.
-----
-----
-----
-----
-----

Generation = 22, Population = 0.
-----
-----
-----
-----
-----

Generation = 23, Population = 0.
-----
-----
-----
-----
-----

Generation = 24, Population = 0.
-----
-----
-----
-----
-----

*** Life<FredkinCell> 5x5 ***

Generation = 0, Population = 11.
-----
-00--
0-0-0
000-0
-0-0-

Generation = 1, Population = 12.
-00--
-1-00
1---1
-1-01
-10--

Generation = 2, Population = 14.
0-1-0
-201-
-0-0-
-201-
0-1-0

Generation = 3, Population = 10.
-020-
--1--
1---1
--1--
-120-

Generation = 4, Population = 18.
01310
0-2-0
-0-0-
0-2-1
02310

Generation = 5, Population = 10.
--4--
1-3-1
1---1
1-3-2
--4--

Generation = 6, Population = 18.
01510
2-4-2
-0-0-
2-4-3
02510

Generation = 7, Population = 10.
--6--
3-5-3
1---1
3-5-4
--6--

Generation = 8, Population = 18.
01710
4-6-4
-0-0-
4-6-5
02710

Generation = 9, Population = 10.
--8--
5-7-5
1---1
5-7-6
--8--

*** Life<FredkinCell> 5x5 ***

Generation = 0, Population = 3.
-----
--0-0
-----
-----
---0-

Generation = 1, Population = 8.
--0-0
-0---
--0-0
---0-
--0-0

Generation = 2, Population = 7.
-----
0-0--
---0-
--0-0
-0-0-

Generation = 3, Population = 6.
0-0--
-----
0-0--
-----
0-0--

Generation = 4, Population = 3.
---0-
-----
---0-
-----
---0-

Generation = 5, Population = 6.
--0-0
-----
--0-0
-----
--0-0

Generation = 6, Population = 3.
-0---
-----
-0---
-----
-0---

Generation = 7, Population = 6.
0-0--
-----
0-0--
-----
0-0--

Generation = 8, Population = 3.
---0-
-----
---0-
-----
---0-

Generation = 9, Population = 6.
--0-0
-----
--0-0
-----
--0-0

Generation = 10, Population = 3.
-0---
-----
-0---
-----
-0---

Generation = 11, Population = 6.
0-0--
-----
0-0--
-----
0-0--

Generation = 12, Population = 3.
---0-
-----
---0-
-----
---0-

Generation = 13, Population = 6.
--0-0
-----
--0-0
-----
--0-0

Generation = 14, Population = 3.
-0---
-----
-0---
-----
-0---

Generation = 15, Population = 6.
0-0--
-----
0-0--
-----
0-0--

Generation = 16, Population = 3.
---0-
-----
---0-
-----
---0-

Generation = 17, Population = 6.
--0-0
-----
--0-0
-----
--0-0

Generation = 18, Population = 3.
-0---
-----
-0---
-----
-0---

Generation = 19, Population = 6.
0-0--
-----
0-0--
-----
0-0--

Generation = 20, Population = 3.
---0-
-----
---0-
-----
---0-

Generation = 21, Population = 6.
--0-0
-----
--0-0
-----
--0-0

Generation = 22, Population = 3.
-0---
-----
-0---
-----
-0---

Generation = 23, Population = 6.
0-0--
-----
0-0--
-----
0-0--

Generation = 24, Population = 3.
---0-
-----
---0-
-----
---0-

*** Life<FredkinCell> 5x5 ***

Generation = 0, Population = 6.
-----
-0---
----0
0---0
-0-0-

Generation = 1, Population = 9.
-0---
0-0-0
00-01
----1
-----

Generation = 2, Population = 12.
----0
1--01
-1012
00--2
----0

Generation = 3, Population = 11.
0---1
----2
0--23
1----
00-01

Generation = 4, Population = 10.
-0-02
-----
1103-
-----
-1-12

Generation = 5, Population = 15.
0--13
1-0-2
2--43
1-0-2
0--23

Generation = 6, Population = 10.
10-2-
-----
-1054
-----
11-3-

Generation = 7, Population = 15.
21--3
1-0-2
22--5
1-0-2
22--3

Generation = 8, Population = 10.
-2-24
-----
3305-
-----
-3-34

Generation = 9, Population = 15.
2--35
1-0-2
4--65
1-0-2
2--45

Generation = 10, Population = 10.
32-4-
-----
-3076
-----
33-5-

Generation = 11, Population = 15.
43--5
1-0-2
44--7
1-0-2
44--5

Generation = 12, Population = 10.
-4-46
-----
5507-
-----
-5-56

Generation = 13, Population = 15.
4--57
1-0-2
6--87
1-0-2
4--67

Generation = 14, Population = 10.
54-6-
-----
-5098
-----
55-7-

Generation = 15, Population = 15.
65--7
1-0-2
66--9
1-0-2
66--7

Generation = 16, Population = 10.
-6-68
-----
7709-
-----
-7-78

*** Life<FredkinCell> 5x5 ***

Generation = 0, Population = 10.
-----
--00-
-0-0-
00000
----0

Generation = 1, Population = 12.
--00-
--1-0
-1---
11-1-
000-1

Generation = 2, Population = 12.
-0-1-
--20-
-2-00
-20--
-110-

Generation = 3, Population = 18.
0-020
-031-
03--1
13-10
0-211

Generation = 4, Population = 16.
-0-31
0-4-0
-4-02
2-0-1
1132-

Generation = 5, Population = 10.
--04-
-----
0--13
3-1-2
--43-

Generation = 6, Population = 16.
-0151
0-4-0
14-2-
4-2-3
11-4-

Generation = 7, Population = 10.
-12--
1-5-1
25--3
-----
-24--

Generation = 8, Population = 16.
-2-51
2-6-2
-6-24
4-2-3
1354-

Generation = 9, Population = 10.
--26-
-----
2--35
5-3-4
--65-

Generation = 10, Population = 16.
-2371
2-6-2
36-4-
6-4-5
13-6-

Generation = 11, Population = 10.
-34--
3-7-3
47--5
-----
-46--

*** Life<FredkinCell> 5x5 ***

Generation = 0, Population = 11.
-----
-0-00
00---
-00-0
-00-0

Generation = 1, Population = 13.
-0-00
-1-11
11-0-
-1--1
0---1

Generation = 2, Population = 13.
01---
---2-
22-10
020-2
---02

Generation = 3, Population = 12.
1200-
--03-
--0--
-31--
00-1-

Generation = 4, Population = 9.
2-1-0
0-1-1
-----
-----
1-0-2

Generation = 5, Population = 12.
3-2-1
1-2-2
2-0-0
0-1-2
-----

Generation = 6, Population = 9.
4-3-2
-----
-----
1-2-3
1-0-2

Generation = 7, Population = 12.
-----
1-2-2
2-0-0
2-3-4
2-1-3

Generation = 8, Population = 9.
4-3-2
2-3-3
-----
-----
3-2-4

Generation = 9, Population = 12.
5-4-3
3-4-4
2-0-0
2-3-4
-----

Generation = 10, Population = 9.
6-5-4
-----
-----
3-4-5
3-2-4

Generation = 11, Population = 12.
-----
3-4-4
2-0-0
4-5-6
4-3-5

Generation = 12, Population = 9.
6-5-4
4-5-5
-----
-----
5-4-6

Generation = 13, Population = 12.
7-6-5
5-6-6
2-0-0
4-5-6
-----

Generation = 14, Population = 9.
8-7-6
-----
-----
5-6-7
5-4-6

Generation = 15, Population = 12.
-----
5-6-6
2-0-0
6-7-8
6-5-7

*** Life<FredkinCell> 5x5 ***

Generation = 0, Population = 6.
-----
-----
---0-
000-0
--0--

Generation = 1, Population = 9.
-----
---0-
00---
1--0-
0-100

Generation = 2, Population = 12.
---0-
000-0
-10--
---1-
1-211

Generation = 3, Population = 13.
00---
11-0-
----0
1002-
--322

Generation = 4, Population = 10.
--00-
-----
--00-
2-1-0
1--33

Generation = 5, Population = 13.
-0110
-----
01-1-
3-2-1
20-4-

Generation = 6, Population = 10.
01--1
1-0-0
-20--
-----
-13--

Generation = 7, Population = 13.
-2-12
2-1-1
-3-10
-----
2244-

Generation = 8, Population = 10.
--12-
-----
--02-
3-2-1
3--53

Generation = 9, Population = 13.
-2232
-----
03-3-
4-3-2
42-6-

Generation = 10, Population = 10.
03--3
2-1-1
-40--
-----
-34--

Generation = 11, Population = 13.
-4-34
3-2-2
-5-30
-----
4456-

Generation = 12, Population = 10.
--24-
-----
--04-
4-3-2
5--73

Generation = 13, Population = 13.
-4354
-----
05-5-
5-4-3
64-8-

Generation = 14, Population = 10.
05--5
3-2-2
-60--
-----
-55--

Generation = 15, Population = 13.
-6-56
4-3-3
-7-50
-----
6668-

Generation = 16, Population = 10.
--36-
-----
--06-
5-4-3
7--93

Generation = 17, Population = 13.
-6476
-----
07-7-
6-5-4
86-+-

*** Life<FredkinCell> 5x5 ***

Generation = 0, Population = 11.
-----
--0--
0000-
--0-0
000-0

Generation = 1, Population = 10.
--0--
0-1--
1--1-
-0-01
1---1

Generation = 2, Population = 10.
0010-
1-2--
2--2-
0----
----2

Generation = 3, Population = 14.
--210
-030-
-0--0
10-01
1--0-

Generation = 4, Population = 10.
---21
1-4-0
---21
-----
2-01-

Generation = 5, Population = 10.
0--3-
-----
2--3-
1-0-1
--122

Generation = 6, Population = 10.
-02-1
-----
30---
2-1-2
20---

Generation = 7, Population = 10.
013--
1-4-0
-1--1
-----
-1--2

*** Life<FredkinCell> 5x5 ***

Generation = 0, Population = 1.
-----
-----
-----
--0--
-----

Generation = 1, Population = 4.
-----
-----
--0--
-0-0-
--0--

Generation = 2, Population = 3.
-----
--0--
-----
0---0
-----

Generation = 3, Population = 10.
--0--
-0-0-
0-0-0
-0-0-
0---0

Generation = 4, Population = 3.
-----
-----
-----
0-0-0
-----

Generation = 5, Population = 6.
-----
-----
0-0-0
-----
0-0-0

Generation = 6, Population = 3.
-----
0-0-0
-----
-----
-----

Generation = 7, Population = 6.
0-0-0
-----
0-0-0
-----
-----

Generation = 8, Population = 3.
-----
-----
-----
0-0-0
-----

Generation = 9, Population = 6.
-----
-----
0-0-0
-----
0-0-0

Generation = 10, Population = 3.
-----
0-0-0
-----
-----
-----

Generation = 11, Population = 6.
0-0-0
-----
0-0-0
-----
-----

Generation = 12, Population = 3.
-----
-----
-----
0-0-0
-----

Generation = 13, Population = 6.
-----
-----
0-0-0
-----
0-0-0

Generation = 14, Population = 3.
-----
0-0-0
-----
-----
-----

Generation = 15, Population = 6.
0-0-0
-----
0-0-0
-----
-----

Generation = 16, Population = 3.
-----
-----
-----
0-0-0
-----

Generation = 17, Population = 6.
-----
-----
0-0-0
-----
0-0-0

Generation = 18, Population = 3.
-----
0-0-0
-----
-----
-----

Generation = 19, Population = 6.
0-0-0
-----
0-0-0
-----
-----

Generation = 20, Population = 3.
-----
-----
-----
0-0-0
-----

Generation = 21, Population = 6.
-----
-----
0-0-0
-----
0-0-0

*** Life<FredkinCell> 5x5 ***

Generation = 0, Population = 10.
-----
--0--
00--0
---00
00-00

Generation = 1, Population = 11.
--0--
0--00
11--1
--0-1
11---

Generation = 2, Population = 11.
00--0
1--1-
-2---
-0--2
22--0

Generation = 3, Population = 16.
-10--
200--
-3001
--003
3-001

Generation = 4, Population = 9.
---0-
3-1-0
---1-
0-1-4
---1-

Generation = 5, Population = 4.
0----
-----
--0-1
-----
3----

Generation = 6, Population = 9.
-1---
3-1-0
-3---
0-1-4
-2---

Generation = 7, Population = 4.
----0
-----
1-0--
-----
----1

Generation = 8, Population = 9.
---0-
3-1-0
---1-
0-1-4
---1-

Generation = 9, Population = 4.
0----
-----
--0-1
-----
3----

*** Life<FredkinCell> 5x5 ***

Generation = 0, Population = 1.
-----
---0-
-----
-----
-----

Generation = 1, Population = 4.
---0-
--0-0
---0-
-----
-----

Generation = 2, Population = 2.
-----
-0---
-----
---0-
-----

Generation = 3, Population = 8.
-0---
0-0--
-0-0-
--0-0
---0-

Generation = 4, Population = 0.
-----
-----
-----
-----
-----

*** Life<FredkinCell> 5x5 ***

Generation = 0, Population = 3.
-----
--0--
---0-
----0
-----

Generation = 1, Population = 3.
--0--
-0---
-----
-----
----0

Generation = 2, Population = 5.
---0-
0----
-0---
----0
---0-

Generation = 3, Population = 8.
0-0-0
---0-
--0-0
-0---
--0--

Generation = 4, Population = 9.
---0-
0-0-0
---0-
0-0-0
---0-

Generation = 5, Population = 4.
0----
-----
--0-0
-----
0----

Generation = 6, Population = 9.
-0---
0-0-0
-0---
0-0-0
-0---

Generation = 7, Population = 4.
----0
-----
0-0--
-----
----0

Generation = 8, Population = 9.
---0-
0-0-0
---0-
0-0-0
---0-

Generation = 9, Population = 4.
0----
-----
--0-0
-----
0----

Generation = 10, Population = 9.
-0---
0-0-0
-0---
0-0-0
-0---

Generation = 11, Population = 4.
----0
-----
0-0--
-----
----0

Generation = 12, Population = 9.
---0-
0-0-0
---0-
0-0-0
---0-

Generation = 13, Population = 4.
0----
-----
--0-0
-----
0----

Generation = 14, Population = 9.
-0---
0-0-0
-0---
0-0-0
-0---

Generation = 15, Population = 4.
----0
-----
0-0--
-----
----0

Generation = 16, Population = 9.
---0-
0-0-0
---0-
0-0-0
---0-

Generation = 17, Population = 4.
0----
-----
--0-0
-----
0----

*** Life<FredkinCell> 5x5 ***

Generation = 0, Population = 14.
-----
-0000
00000
-0-0-
-00-0

Generation = 1, Population = 13.
-0000
--11-
1-1--
---10
0-10-

Generation = 2, Population = 13.
01111
0-2--
--200
--0-1
--2--

Generation = 3, Population = 15.
--2-2
10-1-
103--
-0-12
-0300

Generation = 4, Population = 7.
0--1-
-----
--400
-----
0--1-

Generation = 5, Population = 15.
-12-2
1-2-0
-05-1
0-0-2
-03-0

Generation = 6, Population = 7.
-2--3
-----
116--
-----
-1--1

Generation = 7, Population = 15.
0-21-
1-2-0
2-70-
0-0-2
0-31-

Generation = 8, Population = 7.
1--2-
-----
--811
-----
1--2-

Generation = 9, Population = 15.
-22-3
1-2-0
-19-2
0-0-2
-13-1

Generation = 10, Population = 7.
-3--4
-----
22+--
-----
-2--2

Generation = 11, Population = 15.
1-22-
1-2-0
3-+1-
0-0-2
1-32-

Generation = 12, Population = 7.
2--3-
-----
--+22
-----
2--3-

Generation = 13, Population = 15.
-32-4
1-2-0
-2+-3
0-0-2
-23-2

Generation = 14, Population = 7.
-4--5
-----
33+--
-----
-3--3

Generation = 15, Population = 15.
2-23-
1-2-0
4-+2-
0-0-2
2-33-

Generation = 16, Population = 7.
3--4-
-----
--+33
-----
3--4-

Generation = 17, Population = 15.
-42-5
1-2-0
-3+-4
0-0-2
-33-3

Generation = 18, Population = 7.
-5--6
-----
44+--
-----
-4--4

Generation = 19, Population = 15.
3-24-
1-2-0
5-+3-
0-0-2
3-34-

Generation = 20, Population = 7.
4--5-
-----
--+44
-----
4--5-

Generation = 21, Population = 15.
-52-6
1-2-0
-4+-5
0-0-2
-43-4

*** Life<FredkinCell> 5x5 ***

Generation = 0, Population = 9.
-----
--000
0--0-
00---
--0-0

Generation = 1, Population = 14.
--000
00111
1--1-
-1-00
0----

Generation = 2, Population = 10.
0--1-
--2--
20--0
0---1
---00

Generation = 3, Population = 10.
-0--0
----1
-1-11
1----
0-01-

Generation = 4, Population = 12.
0-011
-----
---2-
2-0-1
1-120

Generation = 5, Population = 10.
--1-2
0-2-1
2----
3-1-2
2----

Generation = 6, Population = 12.
002-3
1-3-2
-1---
-----
301-0

Generation = 7, Population = 10.
----4
2-4-3
----1
3-1-2
4-2--

Generation = 8, Population = 12.
0-215
-----
---2-
4-2-3
5-320

Generation = 9, Population = 10.
--3-6
2-4-3
2----
5-3-4
6----

Generation = 10, Population = 12.
004-7
3-5-4
-1---
-----
703-0

Generation = 11, Population = 10.
----8
4-6-5
----1
5-3-4
8-4--

Generation = 12, Population = 12.
0-419
-----
---2-
6-4-5
9-520

Generation = 13, Population = 10.
--5-+
4-6-5
2----
7-5-6
+----

Generation = 14, Population = 12.
006-+
5-7-6
-1---
-----
+05-0

Generation = 15, Population = 10.
----+
6-8-7
----1
7-5-6
+-6--

Generation = 16, Population = 12.
0-61+
-----
---2-
8-6-7
+-720

Generation = 17, Population = 10.
--7-+
6-8-7
2----
9-7-8
+----

Generation = 18, Population = 12.
008-+
7-9-8
-1---
-----
+07-0

Generation = 19, Population = 10.
----+
8-+-9
----1
9-7-8
+-8--

Generation = 20, Population = 12.
0-81+
-----
---2-
+-8-9
+-920

Generation = 21, Population = 10.
--9-+
8-+-9
2----
+-9-+
+----

Generation = 22, Population = 12.
00+-+
9-+-+
-1---
-----
+09-0

Generation = 23, Population = 10.
----+
+-+-+
----1
+-9-+
+-+--

*** Life<FredkinCell> 5x5 ***

Generation = 0, Population = 12.
-----
---00
00-00
00--0
-000-

Generation = 1, Population = 10.
---00
000--
----1
-1-01
---1-

Generation = 2, Population = 13.
00-11
1-1--
0-0-2
0----
-002-

Generation = 3, Population = 13.
-1022
-02--
--1--
1--01
-1-30

Generation = 4, Population = 9.
0-1-3
1-3-0
0-2-2
-----
-----

Generation = 5, Population = 9.
1-2-4
-----
1-3-3
1-0-1
-----

Generation = 6, Population = 9.
-----
-----
2-4-4
2-1-2
0-0-0

Generation = 7, Population = 9.
-----
1-3-0
3-5-5
-----
1-1-1

Generation = 8, Population = 9.
1-2-4
2-4-1
4-6-6
-----
-----

Generation = 9, Population = 9.
2-3-5
-----
5-7-7
2-1-2
-----

Generation = 10, Population = 9.
-----
-----
6-8-8
3-2-3
1-1-1

Generation = 11, Population = 9.
-----
2-4-1
7-9-9
-----
2-2-2

Generation = 12, Population = 9.
2-3-5
3-5-2
8-+-+
-----
-----

*** Life<FredkinCell> 5x5 ***

Generation = 0, Population = 10.
-----
---00
000-0
-0--0
0--0-

Generation = 1, Population = 13.
---00
00-1-
1110-
01--1
--0--

*** Life<FredkinCell> 5x5 ***

Generation = 0, Population = 9.
-----
--000
----0
-0--0
--000

Generation = 1, Population = 9.
--000
-01--
-00--
0----
--1--

Generation = 2, Population = 8.
----1
0-2-0
---0-
-----
00-0-

Generation = 3, Population = 12.
0-002
---01
0----
00---
11--0

Generation = 4, Population = 10.
--11-
-----
1--00
1-0-0
--10-

Generation = 5, Population = 16.
-0222
0-2-1
20-1-
2-1-1
11-1-

Generation = 6, Population = 10.
-13--
1-3-2
31--0
-----
-21--

Generation = 7, Population = 16.
-2-22
2-4-3
-2-11
2-1-1
1321-

Generation = 8, Population = 10.
--33-
-----
3--22
3-2-2
--32-

Generation = 9, Population = 16.
-2442
2-4-3
42-3-
4-3-3
13-3-

Generation = 10, Population = 10.
-35--
3-5-4
53--2
-----
-43--

Generation = 11, Population = 16.
-4-42
4-6-5
-4-33
4-3-3
1543-

Generation = 12, Population = 10.
--55-
-----
5--44
5-4-4
--54-

Generation = 13, Population = 16.
-4662
4-6-5
64-5-
6-5-5
15-5-

Generation = 14, Population = 10.
-57--
5-7-6
75--4
-----
-65--

Generation = 15, Population = 16.
-6-62
6-8-7
-6-55
6-5-5
1765-

*** Life<FredkinCell> 5x5 ***

Generation = 0, Population = 9.
-----
-0-0-
--00-
0--0-
-0-00

Generation = 1, Population = 11.
-0-0-
0-010
0-110
-----
----1

Generation = 2, Population = 10.
--01-
10---
1--2-
0-00-
---0-

Generation = 3, Population = 14.
0-120
-1---
---30
1-110
0--11

Generation = 4, Population = 10.
-02-1
-----
10---
2-2-1
10---

Generation = 5, Population = 10.
013--
1-0-0
-1--0
-----
-1--1

Generation = 6, Population = 10.
---21
2-1-1
---31
-----
1-01-

Generation = 7, Population = 10.
0--3-
-----
1--4-
2-2-1
--121

Generation = 8, Population = 10.
-13-1
-----
21---
3-3-2
11---

Generation = 9, Population = 10.
024--
2-1-1
-2--1
-----
-2--1

Generation = 10, Population = 10.
---31
3-2-2
---42
-----
1-12-

Generation = 11, Population = 10.
0--4-
-----
2--5-
3-3-2
--231

Generation = 12, Population = 10.
-24-1
-----
32---
4-4-3
12---

Generation = 13, Population = 10.
035--
3-2-2
-3--2
-----
-3--1

Generation = 14, Population = 10.
---41
4-3-3
---53
-----
1-23-

Generation = 15, Population = 10.
0--5-
-----
3--6-
4-4-3
--341

Generation = 16, Population = 10.
-35-1
-----
43---
5-5-4
13---

Generation = 17, Population = 10.
046--
4-3-3
-4--3
-----
-4--1

Generation = 18, Population = 10.
---51
5-4-4
---64
-----
1-34-

Generation = 19, Population = 10.
0--6-
-----
4--7-
5-5-4
--451

Generation = 20, Population = 10.
-46-1
-----
54---
6-6-5
14---

*** Life<FredkinCell> 5x5 ***

Generation = 0, Population = 2.
-----
-----
-----
---0-
-0---

Generation = 1, Population = 7.
-----
-----
---0-
-00-0
0-00-

*** Life<FredkinCell> 5x5 ***

Generation = 0, Population = 4.
-----
-----
--0--
--00-
--0--

Generation = 1, Population = 9.
-----
--0--
-01--
-0110
-01--

Generation = 2, Population = 11.
--0--
--10-
0-2-0
01--1
0---0

Generation = 3, Population = 17.
-01--
0021-
10301
12-1-
1--01

Generation = 4, Population = 9.
-----
-----
2-4-2
2-1-1
2-1-2

Generation = 5, Population = 9.
-----
0-2-0
3-5-3
-----
3-2-3

Generation = 6, Population = 9.
0-1-0
1-3-1
4-6-4
-----
-----

Generation = 7, Population = 9.
1-2-1
-----
5-7-5
2-1-1
-----

Generation = 8, Population = 9.
-----
-----
6-8-6
3-2-2
3-2-3

Generation = 9, Population = 9.
-----
1-3-1
7-9-7
-----
4-3-4

Generation = 10, Population = 9.
1-2-1
2-4-2
8-+-8
-----
-----

Generation = 11, Population = 9.
2-3-2
-----
9-+-9
3-2-2
-----

Generation = 12, Population = 9.
-----
-----
+-+-+
4-3-3
4-3-4

Generation = 13, Population = 9.
-----
2-4-2
+-+-+
-----
5-4-5

Generation = 14, Population = 9.
2-3-2
3-5-3
+-+-+
-----
-----

Generation = 15, Population = 9.
3-4-3
-----
+-+-+
4-3-3
-----

Generation = 16, Population = 9.
-----
-----
+-+-+
5-4-4
5-4-5

Generation = 17, Population = 9.
-----
3-5-3
+-+-+
-----
6-5-6

Generation = 18, Population = 9.
3-4-3
4-6-4
+-+-+
-----
-----

*** Life<FredkinCell> 5x5 ***

Generation = 0, Population = 12.
-----
-0-0-
-00-0
-0000
000--

Generation = 1, Population = 12.
-0-0-
010--
01--1
-1---
11--0

Generation = 2, Population = 12.
-10-0
--1-0
-2-0-
0-0--
2-00-

Generation = 3, Population = 14.
02--1
-1201
-----
1110-
3--10

Generation = 4, Population = 6.
1---2
-----
0---1
-----
4---1

Generation = 5, Population = 6.
-2-0-
-----
-2-0-
-----
-1-1-

Generation = 6, Population = 6.
1---2
-----
0---1
-----
4---1

Generation = 7, Population = 6.
-2-0-
-----
-2-0-
-----
-1-1-

Generation = 8, Population = 6.
1---2
-----
0---1
-----
4---1

Generation = 9, Population = 6.
-2-0-
-----
-2-0-
-----
-1-1-

Generation = 10, Population = 6.
1---2
-----
0---1
-----
4---1

Generation = 11, Population = 6.
-2-0-
-----
-2-0-
-----
-1-1-

Generation = 12, Population = 6.
1---2
-----
0---1
-----
4---1

Generation = 13, Population = 6.
-2-0-
-----
-2-0-
-----
-1-1-

Generation = 14, Population = 6.
1---2
-----
0---1
-----
4---1

Generation = 15, Population = 6.
-2-0-
-----
-2-0-
-----
-1-1-

Generation = 16, Population = 6.
1---2
-----
0---1
-----
4---1

Generation = 17, Population = 6.
-2-0-
-----
-2-0-
-----
-1-1-

Generation = 18, Population = 6.
1---2
-----
0---1
-----
4---1

Generation = 19, Population = 6.
-2-0-
-----
-2-0-
-----
-1-1-

Generation = 20, Population = 6.
1---2
-----
0---1
-----
4---1

Generation = 21, Population = 6.
-2-0-
-----
-2-0-
-----
-1-1-

Generation = 22, Population = 6.
1---2
-----
0---1
-----
4---1

Generation = 23, Population = 6.
-2-0-
-----
-2-0-
-----
-1-1-

Generation = 24, Population = 6.
1---2
-----
0---1
-----
4---1

*** Life<FredkinCell> 5x5 ***

Generation = 0, Population = 9.
-----
-0000
0-000
-----
-0---

Generation = 1, Population = 16.
-0000
-111-
-0-1-
00000
0-0--

*** Life<FredkinCell> 5x5 ***

Generation = 0, Population = 10.
-----
---0-
-0000
-0--0
00--0

Generation = 1, Population = 9.
---0-
-0-1-
0--1-
-----
1-001

Generation = 2, Population = 12.
-0010
----0
--020
--0-0
--1-2

Generation = 3, Population = 11.
01---
-0-1-
-0--1
-0-0-
-02-3

Generation = 4, Population = 12.
1-01-
-----
0-02-
0-0-0
1-30-

Generation = 5, Population = 7.
--120
-----
1--3-
-----
2--1-

Generation = 6, Population = 12.
-12-1
0-0-0
-00-1
-----
-03-3

*** Life<FredkinCell> 5x5 ***

Generation = 0, Population = 11.
-----
--00-
0--0-
00-00
0--00

Generation = 1, Population = 12.
--00-
001-0
1----
11-1-
1-0--

Generation = 2, Population = 13.
0--1-
---0-
-0000
220-0
20---

Generation = 3, Population = 11.
-0020
00---
--11-
---11
----0

*** Life<FredkinCell> 5x5 ***

Generation = 0, Population = 5.
-----
--0-0
-----
--0--
00---

Generation = 1, Population = 8.
--0-0
-0---
----0
0--0-
11---

Generation = 2, Population = 8.
-----
0----
00---
1-0--
-200-

Generation = 3, Population = 10.
0----
1----
11---
2-1--
-3110

Generation = 4, Population = 10.
10---
-----
22---
3-2-0
-42-1

Generation = 5, Population = 10.
210--
-----
-3--0
4-3-1
-5--2

Generation = 6, Population = 10.
3-10-
1-0-0
---01
-----
---13

Generation = 7, Population = 10.
4--1-
2-1-1
2--1-
-----
--224

Generation = 8, Population = 10.
51---
-----
33---
4-3-1
-53-5

Generation = 9, Population = 10.
621--
-----
-4--1
5-4-2
-6--6

Generation = 10, Population = 10.
7-21-
2-1-1
---12
-----
---27

*** Life<FredkinCell> 5x5 ***

Generation = 0, Population = 4.
-----
--00-
---0-
-----
0----

Generation = 1, Population = 10.
--00-
-01-0
---10
0--0-
-0---

Generation = 2, Population = 10.
---1-
01--1
00---
--01-
--00-

Generation = 3, Population = 10.
000--
--1--
---10
0---0
-0--0

*** Life<FredkinCell> 5x5 ***

Generation = 0, Population = 9.
-----
-0---
0-000
-0--0
00---

Generation = 1, Population = 10.
-0---
---00
--1--
01--1
1-0-0

Generation = 2, Population = 15.
0-000
-0-11
0----
-2002
20--1

Generation = 3, Population = 10.
-011-
0-0--
-01--
0----
3---2

Generation = 4, Population = 13.
-1220
-----
01-0-
1-0-2
40-0-

Generation = 5, Population = 10.
02--1
0-0-1
-21--
-----
-10--

Generation = 6, Population = 13.
-3-22
1-1-2
-3-00
-----
4210-

Generation = 7, Population = 10.
--23-
-----
--11-
1-0-2
5--12

*** Life<FredkinCell> 5x5 ***

Generation = 0, Population = 3.
-----
-0-0-
-----
0----
-----

Generation = 1, Population = 9.
-0-0-
0---0
00-0-
-0---
0----

*** Life<FredkinCell> 5x5 ***

Generation = 0, Population = 5.
-----
-----
---00
---0-
--00-

Generation = 1, Population = 7.
-----
---00
--0-1
-----
-01-0

Generation = 2, Population = 10.
---00
---1-
-0-02
-0---
012--

Generation = 3, Population = 14.
--0-1
-00-0
01--3
---00
1230-

Generation = 4, Population = 4.
--1-2
-----
1----
-----
2----

Generation = 5, Population = 6.
-0---
0-0-0
-1---
-----
-2---

Generation = 6, Population = 4.
----2
-----
----3
-----
2-3--

Generation = 7, Population = 6.
---0-
-----
---0-
0-0-0
---0-

Generation = 8, Population = 4.
--1-2
-----
1----
-----
2----

Generation = 9, Population = 6.
-0---
0-0-0
-1---
-----
-2---

Generation = 10, Population = 4.
----2
-----
----3
-----
2-3--

Generation = 11, Population = 6.
---0-
-----
---0-
0-0-0
---0-

Generation = 12, Population = 4.
--1-2
-----
1----
-----
2----

Generation = 13, Population = 6.
-0---
0-0-0
-1---
-----
-2---

Generation = 14, Population = 4.
----2
-----
----3
-----
2-3--

Generation = 15, Population = 6.
---0-
-----
---0-
0-0-0
---0-

Generation = 16, Population = 4.
--1-2
-----
1----
-----
2----

Generation = 17, Population = 6.
-0---
0-0-0
-1---
-----
-2---

Generation = 18, Population = 4.
----2
-----
----3
-----
2-3--

*** Life<FredkinCell> 5x5 ***

Generation = 0, Population = 8.
-----
-----
00--0
00--0
-0--0

Generation = 1, Population = 13.
-----
00--0
--001
-100-
-1001

Generation = 2, Population = 16.
00--0
11--1
00-1-
0--10
0-112

Generation = 3, Population = 14.
--001
220-2
1--21
---2-
1-22-

Generation = 4, Population = 4.
0----
-----
2----
-----
--3-2

Generation = 5, Population = 6.
-0---
-----
-0---
0-0-0
-1---

Generation = 6, Population = 4.
0-0--
-----
----1
-----
----2

Generation = 7, Population = 6.
---0-
2-0-2
---2-
-----
---2-

Generation = 8, Population = 4.
0----
-----
2----
-----
--3-2

Generation = 9, Population = 6.
-0---
-----
-0---
0-0-0
-1---

Generation = 10, Population = 4.
0-0--
-----
----1
-----
----2

Generation = 11, Population = 6.
---0-
2-0-2
---2-
-----
---2-

Generation = 12, Population = 4.
0----
-----
2----
-----
--3-2

Generation = 13, Population = 6.
-0---
-----
-0---
0-0-0
-1---

Generation = 14, Population = 4.
0-0--
-----
----1
-----
----2

Generation = 15, Population = 6.
---0-
2-0-2
---2-
-----
---2-

Generation = 16, Population = 4.
0----
-----
2----
-----
--3-2

Generation = 17, Population = 6.
-0---
-----
-0---
0-0-0
-1---

Generation = 18, Population = 4.
0-0--
-----
----1
-----
----2

Generation = 19, Population = 6.
---0-
2-0-2
---2-
-----
---2-

Generation = 20, Population = 4.
0----
-----
2----
-----
--3-2

Generation = 21, Population = 6.
-0---
-----
-0---
0-0-0
-1---

Generation = 22, Population = 4.
0-0--
-----
----1
-----
----2

Generation = 23, Population = 6.
---0-
2-0-2
---2-
-----
---2-

Generation = 24, Population = 4.
0----
-----
2----
-----
--3-2

*** Life<FredkinCell> 5x5 ***

Generation = 0, Population = 11.
-----
--000
0--00
0--0-
00--0

Generation = 1, Population = 15.
--000
0011-
10-1-
--010
-10--

Generation = 2, Population = 13.
0--11
-122-
-----
00-21
02--0

Generation = 3, Population = 8.
----2
-2---
1-0-0
---3-
--0-1

Generation = 4, Population = 9.
-0-1-
-----
-0-1-
0-0-1
-2-0-

*** Life<FredkinCell> 5x5 ***

Generation = 0, Population = 5.
-----
-----
0-0--
-0---
--0-0

Generation = 1, Population = 6.
-----
0-0--
-0-0-
--0-0
-----

Generation = 2, Population = 6.
0-0--
-0---
-----
---0-
--0-0

Generation = 3, Population = 6.
-0-0-
-----
-0-0-
-----
-0-0-

Generation = 4, Population = 6.
0---0
-----
0---0
-----
0---0

Generation = 5, Population = 6.
-0-0-
-----
-0-0-
-----
-0-0-

Generation = 6, Population = 6.
0---0
-----
0---0
-----
0---0

Generation = 7, Population = 6.
-0-0-
-----
-0-0-
-----
-0-0-

Generation = 8, Population = 6.
0---0
-----
0---0
-----
0---0

Generation = 9, Population = 6.
-0-0-
-----
-0-0-
-----
-0-0-

Generation = 10, Population = 6.
0---0
-----
0---0
-----
0---0

Generation = 11, Population = 6.
-0-0-
-----
-0-0-
-----
-0-0-

Generation = 12, Population = 6.
0---0
-----
0---0
-----
0---0

Generation = 13, Population = 6.
-0-0-
-----
-0-0-
-----
-0-0-

*** Life<FredkinCell> 5x5 ***

Generation = 0, Population = 11.
-----
-0-0-
00--0
00--0
0-0-0

Generation = 1, Population = 11.
-0-0-
-1---
-10-1
1--0-
10--1

Generation = 2, Population = 13.
01--0
0--00
--10-
20--0
-10--

Generation = 3, Population = 11.
-20-1
1----
--2-1
3-0--
--101

Generation = 4, Population = 7.
-31--
-----
-13--
-----
11--2

Generation = 5, Population = 15.
0420-
-----
0240-
3-0-0
2210-

Generation = 6, Population = 7.
1--11
-----
--51-
-----
--21-

Generation = 7, Population = 15.
-4222
1-0-0
-2621
-----
-2322

Generation = 8, Population = 7.
-53--
-----
-37--
-----
23--3

Generation = 9, Population = 15.
1642-
-----
0482-
3-0-0
3432-

Generation = 10, Population = 7.
2--32
-----
--93-
-----
--43-

Generation = 11, Population = 15.
-6443
1-0-0
-4+41
-----
-4543

Generation = 12, Population = 7.
-75--
-----
-5+--
-----
35--4

Generation = 13, Population = 15.
2864-
-----
06+4-
3-0-0
4654-

Generation = 14, Population = 7.
3--53
-----
--+5-
-----
--65-

Generation = 15, Population = 15.
-8664
1-0-0
-6+61
-----
-6764

Generation = 16, Population = 7.
-97--
-----
-7+--
-----
47--5

Generation = 17, Population = 15.
3+86-
-----
08+6-
3-0-0
5876-

Generation = 18, Population = 7.
4--74
-----
--+7-
-----
--87-

*** Life<FredkinCell> 5x5 ***

Generation = 0, Population = 12.
-----
---00
00---
00-00
-0000

Generation = 1, Population = 11.
---00
00011
--0--
-10--
---1-

Generation = 2, Population = 12.
00---
1-12-
00--0
02---
-0--0

Generation = 3, Population = 10.
-1-0-
--23-
1----
-30--
-101-

Generation = 4, Population = 12.
0-010
1-3-1
---0-
-----
0-120

Generation = 5, Population = 10.
1----
2-4-2
1----
0-0-0
--2-1

Generation = 6, Population = 12.
210-0
-----
-0---
1-1-1
013-2

Generation = 7, Population = 10.
3-1--
2-4-2
----0
2-2-2
----3

Generation = 8, Population = 12.
4-210
3-5-3
---0-
-----
0-324

Generation = 9, Population = 10.
5----
4-6-4
1----
2-2-2
--4-5

Generation = 10, Population = 12.
612-0
-----
-0---
3-3-3
015-6

Generation = 11, Population = 10.
7-3--
4-6-4
----0
4-4-4
----7

Generation = 12, Population = 12.
8-410
5-7-5
---0-
-----
0-528

Generation = 13, Population = 10.
9----
6-8-6
1----
4-4-4
--6-9

Generation = 14, Population = 12.
+14-0
-----
-0---
5-5-5
017-+

Generation = 15, Population = 10.
+-5--
6-8-6
----0
6-6-6
----+

Generation = 16, Population = 12.
+-610
7-9-7
---0-
-----
0-72+

Generation = 17, Population = 10.
+----
8-+-8
1----
6-6-6
--8-+

